<svg width="830" height="105" viewBox="0 0 830 105" fill="none" xmlns="http://www.w3.org/2000/svg">
<path d="M73.8125 21.5C73.5208 23.0417 72.7083 24.3958 71.375 25.5625C70.0833 26.6875 68.5833 27.7292 66.875 28.6875C65.1667 29.6042 63.4167 30.4792 61.625 31.3125C59.8333 32.1042 58.3542 32.9167 57.1875 33.75C56.8125 34.0417 56.3125 34.3958 55.6875 34.8125C55.1042 35.1875 54.5417 35.6042 54 36.0625C53.4583 36.4792 52.9792 36.9167 52.5625 37.375C52.1875 37.8333 52.0208 38.25 52.0625 38.625C52.0625 39.25 52.25 39.8958 52.625 40.5625C53 41.2292 53.4375 41.8958 53.9375 42.5625C54.4375 43.1875 54.9167 43.7708 55.375 44.3125C55.875 44.8542 56.2292 45.3125 56.4375 45.6875C56.6042 46.0208 56.7292 46.4167 56.8125 46.875C56.9375 47.2917 57.0417 47.75 57.125 48.25C57.2083 48.7083 57.3125 49.1875 57.4375 49.6875C57.5625 50.1875 57.7292 50.6875 57.9375 51.1875C58.3542 52.1042 58.875 53.0417 59.5 54C60.125 54.9583 60.7708 55.9167 61.4375 56.875C62.1042 57.7917 62.75 58.7083 63.375 59.625C64.0417 60.5 64.625 61.3542 65.125 62.1875C65.625 63.0625 66.125 64.0417 66.625 65.125C67.1667 66.2083 67.7292 67.2292 68.3125 68.1875C68.6875 68.8125 69.0833 69.375 69.5 69.875C69.9583 70.3333 70.3542 70.7708 70.6875 71.1875C71.0208 71.6042 71.2917 72.0417 71.5 72.5C71.75 72.9167 71.875 73.4375 71.875 74.0625C71.875 75.3958 71.375 76.6667 70.375 77.875C69.375 79.0833 68.1042 80.1875 66.5625 81.1875C65.0208 82.1875 63.3125 83.1042 61.4375 83.9375C59.5625 84.7292 57.7708 85.4167 56.0625 86C55.0208 86.3333 54.1042 86.6667 53.3125 87C52.5625 87.3333 52.0208 87.5 51.6875 87.5C49.9375 87.4167 48.5417 86.8333 47.5 85.75C46.4583 84.625 45.5833 83.2917 44.875 81.75C44.1667 80.1667 43.5625 78.5208 43.0625 76.8125C42.6042 75.0625 42.0625 73.5208 41.4375 72.1875C41.1042 71.4792 40.6042 70.7083 39.9375 69.875C39.2708 69.0417 38.7083 68.1875 38.25 67.3125C37.875 66.6875 37.4792 65.8333 37.0625 64.75C36.6458 63.625 36.2083 62.4375 35.75 61.1875C35.3333 59.9375 34.875 58.6667 34.375 57.375C33.9167 56.0833 33.4375 54.9375 32.9375 53.9375C32.4792 52.8958 32.0208 52.0417 31.5625 51.375C31.1042 50.7083 30.6458 50.375 30.1875 50.375C29.9375 50.375 29.625 50.4792 29.25 50.6875C28.9167 50.8958 28.5833 51.1458 28.25 51.4375C27.9167 51.7292 27.6042 52 27.3125 52.25C27.0625 52.5 26.875 52.6458 26.75 52.6875C26.25 53.0625 25.7917 53.3125 25.375 53.4375C25 53.5208 24.6667 53.6458 24.375 53.8125C24.125 53.9792 23.9167 54.25 23.75 54.625C23.5833 55 23.5 55.6042 23.5 56.4375C23.5 57.3958 23.7083 58.4792 24.125 59.6875C24.5833 60.8958 24.9375 62.1458 25.1875 63.4375C25.4375 64.8542 25.625 66.3125 25.75 67.8125C25.9167 69.2708 26.1042 70.5417 26.3125 71.625C26.4792 72.9167 26.6875 74.2708 26.9375 75.6875C27.1875 77.0625 27.4167 78.4375 27.625 79.8125C27.875 81.1458 28.0833 82.4583 28.25 83.75C28.4167 85 28.5 86.125 28.5 87.125C28.5 87.3333 28.4583 87.7083 28.375 88.25C28.2917 88.75 28.1458 89.3333 27.9375 90C27.7708 90.625 27.5208 91.2708 27.1875 91.9375C26.8542 92.5625 26.4375 93.0625 25.9375 93.4375C25.6458 93.6458 25 93.9167 24 94.25C23.0417 94.5833 21.9583 94.8958 20.75 95.1875C19.5417 95.4792 18.3542 95.7292 17.1875 95.9375C16.0625 96.1458 15.1875 96.25 14.5625 96.25C13.9792 96.25 13.1875 96.1875 12.1875 96.0625C11.2292 95.9792 10.2292 95.8542 9.1875 95.6875C8.14583 95.5208 7.16667 95.3125 6.25 95.0625C5.33333 94.8125 4.64583 94.5208 4.1875 94.1875C3.4375 93.6875 2.8125 92.8958 2.3125 91.8125C1.8125 90.7292 1.39583 89.5833 1.0625 88.375C0.729167 87.1667 0.479167 86.0417 0.3125 85C0.1875 83.9583 0.125 83.2292 0.125 82.8125C0.125 81.0625 0.229167 79.2708 0.4375 77.4375C0.6875 75.5625 0.9375 73.7083 1.1875 71.875C1.4375 70 1.66667 68.1667 1.875 66.375C2.125 64.5417 2.25 62.75 2.25 61C2.25 60.125 2.20833 59.125 2.125 58C2.08333 56.875 2 55.7917 1.875 54.75C1.79167 54.25 1.64583 53.7292 1.4375 53.1875C1.22917 52.6042 1.125 52.0625 1.125 51.5625C1.125 50.5625 1.22917 49.4167 1.4375 48.125C1.64583 46.8333 1.85417 45.5 2.0625 44.125C2.3125 42.7083 2.54167 41.2917 2.75 39.875C2.95833 38.4167 3.0625 37.0208 3.0625 35.6875C3.0625 33.6042 2.91667 31.7083 2.625 30C2.375 28.25 2.25 26.7292 2.25 25.4375C2.25 24.9375 2.375 24.2917 2.625 23.5C2.91667 22.7083 3.0625 22.0833 3.0625 21.625C3.0625 21.2083 3.04167 20.8333 3 20.5C2.95833 20.125 2.9375 19.7708 2.9375 19.4375C2.9375 18.3958 3.16667 17.6042 3.625 17.0625C4.08333 16.5208 4.5625 16.0208 5.0625 15.5625C5.60417 15.1042 6.10417 14.5625 6.5625 13.9375C7.02083 13.3125 7.25 12.4167 7.25 11.25V9.6875C7.25 7.9375 7.52083 6.58333 8.0625 5.625C8.60417 4.625 9.375 3.89583 10.375 3.4375C11.4167 2.97917 12.6875 2.70833 14.1875 2.625C15.6875 2.54167 17.3958 2.5 19.3125 2.5C20.0625 2.5 20.6667 2.64583 21.125 2.9375C21.5833 3.22917 21.9583 3.625 22.25 4.125C22.5417 4.58333 22.7292 5.125 22.8125 5.75C22.9375 6.375 23 7 23 7.625C23 8.95833 22.8542 10.4167 22.5625 12C22.2708 13.5833 22.0833 15.1667 22 16.75C21.875 18.5417 21.7292 20.25 21.5625 21.875C21.3958 23.5 21.2292 25.125 21.0625 26.75C20.9375 28.3333 20.8125 29.9375 20.6875 31.5625C20.6042 33.1458 20.5625 34.8125 20.5625 36.5625C20.5625 37.3542 20.5833 37.9583 20.625 38.375C20.6667 38.7917 20.8125 39 21.0625 39C21.3125 39 21.6875 38.8542 22.1875 38.5625C22.7292 38.2708 23.2708 37.9375 23.8125 37.5625C24.3958 37.1458 24.9167 36.7708 25.375 36.4375C25.8333 36.0625 26.1458 35.8125 26.3125 35.6875C28.5625 34.0625 30.6458 32.625 32.5625 31.375C34.4792 30.0833 36.3542 28.875 38.1875 27.75C40.0625 26.625 41.9583 25.5417 43.875 24.5C45.7917 23.4167 47.875 22.2708 50.125 21.0625C51.2083 20.4792 52.2917 19.8125 53.375 19.0625C54.4583 18.2708 55.3542 17.75 56.0625 17.5C56.5625 17.375 57.1875 17.3125 57.9375 17.3125C58.7292 17.3125 59.2917 17.25 59.625 17.125C60.0833 16.9583 60.6875 16.625 61.4375 16.125C62.2292 15.5833 63.0625 15.0417 63.9375 14.5C64.8542 13.9167 65.7917 13.3958 66.75 12.9375C67.75 12.4792 68.6667 12.25 69.5 12.25C70.7083 12.25 71.75 12.9167 72.625 14.25C73.5 15.5833 73.9375 17.3125 73.9375 19.4375C73.9375 19.7708 73.9375 20.125 73.9375 20.5C73.9375 20.8333 73.8958 21.1667 73.8125 21.5ZM134.375 53.75V54.5C134.375 55.6667 134.312 56.9375 134.188 58.3125C134.062 59.6458 134 60.8958 134 62.0625C134 62.7708 134.021 63.5 134.062 64.25C134.104 64.9583 134.125 65.6667 134.125 66.375C134.125 67.25 134.021 68.0625 133.812 68.8125C133.604 69.5208 133.354 70.2292 133.062 70.9375C132.771 71.6042 132.438 72.3125 132.062 73.0625C131.729 73.7708 131.438 74.5833 131.188 75.5C130.979 76.25 130.792 77.0208 130.625 77.8125C130.5 78.5625 130.375 79.3125 130.25 80.0625C130.125 80.8125 129.979 81.5208 129.812 82.1875C129.688 82.8125 129.5 83.3542 129.25 83.8125C128.583 85.1458 127.604 86.375 126.312 87.5C125.021 88.625 123.688 89.6042 122.312 90.4375C120.979 91.2292 119.771 91.8542 118.688 92.3125C117.604 92.7708 116.917 93 116.625 93C115.708 93 114.792 92.9167 113.875 92.75C113 92.5833 112.083 92.5 111.125 92.5C109.375 92.5 107.583 92.6458 105.75 92.9375C103.958 93.2708 102.167 93.4375 100.375 93.4375C99.25 93.4375 98.25 93.3333 97.375 93.125C96.5417 92.9583 95.625 92.625 94.625 92.125C93.625 91.625 92.4583 90.9375 91.125 90.0625C89.8333 89.1458 88.1667 87.9583 86.125 86.5C85.125 85.7917 84.25 85.1875 83.5 84.6875C82.7917 84.1458 82.1667 83.4792 81.625 82.6875C81.0833 81.8958 80.6042 80.8542 80.1875 79.5625C79.7708 78.2708 79.375 76.5208 79 74.3125C79 74.1042 78.9792 73.9167 78.9375 73.75C78.8958 73.5833 78.875 73.3958 78.875 73.1875C78.875 72.5208 78.9167 71.875 79 71.25C79.0833 70.5833 79.125 69.8958 79.125 69.1875C79.125 68.4792 79.0208 67.8333 78.8125 67.25C78.6042 66.625 78.375 66.0208 78.125 65.4375C77.875 64.8542 77.6458 64.2917 77.4375 63.75C77.2292 63.2083 77.1042 62.6458 77.0625 62.0625C77.0625 61.7292 77.1875 61.2292 77.4375 60.5625C77.6875 59.8958 77.8125 59.2292 77.8125 58.5625V56.4375C77.8125 55.8958 77.8958 55.3958 78.0625 54.9375C78.2292 54.4792 78.4167 54.0417 78.625 53.625C78.875 53.1667 79.0833 52.7083 79.25 52.25C79.4167 51.75 79.5 51.2083 79.5 50.625C79.5 49.2917 79.3333 47.9583 79 46.625C78.7083 45.25 78.5625 43.8958 78.5625 42.5625C78.5625 41.4375 78.8542 40.2292 79.4375 38.9375C80.0208 37.6042 80.5417 36.0833 81 34.375C81.3333 33.1667 81.5833 31.875 81.75 30.5C81.9583 29.0833 82.2292 27.7292 82.5625 26.4375C83.0208 24.6458 83.5208 22.8958 84.0625 21.1875C84.6042 19.4792 85.1667 17.5625 85.75 15.4375C85.9583 14.6042 86.2083 13.8333 86.5 13.125C86.7917 12.375 86.9375 11.7083 86.9375 11.125C86.9375 10.6667 86.8958 10.2292 86.8125 9.8125C86.7292 9.35417 86.6875 8.9375 86.6875 8.5625C86.6875 7.89583 87.0208 7.27083 87.6875 6.6875C88.3542 6.0625 89.2917 5.75 90.5 5.75C91.6667 5.75 92.7708 5.97917 93.8125 6.4375C94.8958 6.85417 95.8333 7.39583 96.625 8.0625C97.4583 8.72917 98.1042 9.47917 98.5625 10.3125C99.0625 11.1042 99.3125 11.875 99.3125 12.625C99.3125 13.2917 99.25 14.0625 99.125 14.9375C99 15.7708 98.8333 16.6042 98.625 17.4375C98.4583 18.2708 98.2708 19.0833 98.0625 19.875C97.8958 20.625 97.7708 21.25 97.6875 21.75C97.2292 24.1667 96.7708 26.6458 96.3125 29.1875C95.8958 31.7292 95.5 34.3125 95.125 36.9375C94.7917 39.5208 94.5208 42.1667 94.3125 44.875C94.1042 47.5417 94.0208 50.2292 94.0625 52.9375C94.0625 55.6875 94.1875 58.4583 94.4375 61.25C94.5208 61.9167 94.5625 62.6667 94.5625 63.5C94.5625 64.3333 94.5625 65.1667 94.5625 66C94.6042 66.8333 94.6667 67.6042 94.75 68.3125C94.8333 69.0208 95 69.5833 95.25 70C95.4167 70.2917 95.8333 70.625 96.5 71C97.2083 71.375 98.0625 71.75 99.0625 72.125C100.062 72.4583 101.125 72.75 102.25 73C103.375 73.2083 104.458 73.3125 105.5 73.3125C107 73.3125 108.083 73.0208 108.75 72.4375C109.458 71.8542 109.938 71.0833 110.188 70.125C110.438 69.125 110.542 68 110.5 66.75C110.458 65.4583 110.479 64.1458 110.562 62.8125C110.646 61.2292 110.833 59.6875 111.125 58.1875C111.458 56.6875 111.583 55.3333 111.5 54.125C111.417 52.5833 111.146 50.875 110.688 49C110.229 47.0833 109.938 45.125 109.812 43.125C109.812 42.4167 109.875 41.7083 110 41C110.125 40.25 110.188 39.5417 110.188 38.875C110.188 38.3333 110.146 37.6667 110.062 36.875C110.021 36.0833 109.958 35.2292 109.875 34.3125C109.792 33.3542 109.708 32.375 109.625 31.375C109.583 30.3333 109.562 29.2917 109.562 28.25C109.562 25.625 109.854 23.5 110.438 21.875C111.062 20.25 112.312 19.4375 114.188 19.4375C114.812 19.4375 115.5 19.4792 116.25 19.5625C117 19.6458 117.75 19.7292 118.5 19.8125C119.208 19.8125 120.021 19.75 120.938 19.625C121.854 19.5 122.75 19.4375 123.625 19.4375C124.167 19.4375 124.812 19.5833 125.562 19.875C126.312 20.1667 127.042 20.6042 127.75 21.1875C128.5 21.7708 129.167 22.5417 129.75 23.5C130.375 24.4583 130.854 25.5833 131.188 26.875C131.438 28 131.583 29.2292 131.625 30.5625C131.667 31.8958 131.792 33.1667 132 34.375C132.25 35.7917 132.521 37.2083 132.812 38.625C133.104 40.0417 133.25 41.3542 133.25 42.5625C133.25 43.3542 133.229 44.1458 133.188 44.9375C133.146 45.6875 133.125 46.4375 133.125 47.1875C133.125 48.5208 133.312 49.6667 133.688 50.625C134.062 51.5417 134.292 52.5833 134.375 53.75ZM227.75 60.625C227.75 62.9583 227.583 65.4167 227.25 68C226.917 70.5833 226.438 73.0208 225.812 75.3125C225.229 77.6042 224.479 79.6042 223.562 81.3125C222.688 82.9792 221.688 84.1042 220.562 84.6875C220.104 84.9375 219.438 85.2083 218.562 85.5C217.729 85.75 216.771 85.9792 215.688 86.1875C214.646 86.3958 213.562 86.5625 212.438 86.6875C211.312 86.8125 210.229 86.875 209.188 86.875C208.521 86.875 207.708 86.75 206.75 86.5C205.792 86.25 204.875 85.875 204 85.375C203.125 84.8333 202.375 84.1875 201.75 83.4375C201.167 82.6458 200.875 81.75 200.875 80.75C200.875 79.9167 200.854 79.0625 200.812 78.1875C200.771 77.3125 200.75 76.4583 200.75 75.625C200.75 72.9167 200.792 70.125 200.875 67.25C200.958 64.3333 201 61.3542 201 58.3125C201 55.4792 200.917 52.625 200.75 49.75C200.625 46.875 200.375 43.9375 200 40.9375C199.042 41.5625 198.167 42.375 197.375 43.375C196.625 44.375 195.896 45.4583 195.188 46.625C194.521 47.75 193.875 48.9167 193.25 50.125C192.625 51.3333 191.958 52.4583 191.25 53.5C190.625 54.4583 189.875 55.2708 189 55.9375C188.125 56.6042 187.438 57.3542 186.938 58.1875C186.438 59.0208 186.146 59.8333 186.062 60.625C185.979 61.4167 185.771 62.125 185.438 62.75C185.104 63.3333 184.5 63.8125 183.625 64.1875C182.75 64.5208 181.292 64.6667 179.25 64.625C177.958 64.625 176.938 64.3958 176.188 63.9375C175.479 63.4792 174.854 62.8542 174.312 62.0625C173.771 61.2292 173.25 60.2917 172.75 59.25C172.25 58.2083 171.604 57.0833 170.812 55.875C170.354 55.25 169.854 54.7083 169.312 54.25C168.812 53.7917 168.375 53.2708 168 52.6875C167.5 51.8958 166.979 51 166.438 50C165.896 49 165.375 47.9792 164.875 46.9375C164.375 45.8958 163.875 44.8542 163.375 43.8125C162.917 42.7708 162.479 41.8125 162.062 40.9375C162.146 42.5208 162.208 44.1458 162.25 45.8125C162.292 47.4792 162.312 49.2292 162.312 51.0625V58.1875C162.312 59.7292 162.312 61.2708 162.312 62.8125C162.354 64.3542 162.417 65.8542 162.5 67.3125C162.542 68.1875 162.646 69.0833 162.812 70C162.979 70.9167 163.146 71.8542 163.312 72.8125C163.521 73.7708 163.708 74.7292 163.875 75.6875C164.042 76.6458 164.125 77.5625 164.125 78.4375C164.125 79.3125 164.042 79.9583 163.875 80.375C163.75 80.7917 163.542 81.1667 163.25 81.5C162.958 81.7917 162.583 82.1042 162.125 82.4375C161.708 82.7708 161.188 83.2708 160.562 83.9375C159.938 84.6042 159.354 85.3125 158.812 86.0625C158.312 86.8125 157.75 87.5 157.125 88.125C156.5 88.75 155.812 89.2708 155.062 89.6875C154.312 90.1042 153.417 90.3125 152.375 90.3125C151.042 90.3125 149.688 90.125 148.312 89.75C146.938 89.375 145.667 88.8542 144.5 88.1875C143.333 87.4792 142.375 86.625 141.625 85.625C140.917 84.625 140.562 83.5 140.562 82.25C140.562 80.6667 140.75 78.7292 141.125 76.4375C141.542 74.1458 141.75 71.6875 141.75 69.0625C141.75 68.0625 141.812 67.2292 141.938 66.5625C142.062 65.8542 142.208 65.2083 142.375 64.625C142.583 64 142.792 63.3958 143 62.8125C143.208 62.1875 143.375 61.4583 143.5 60.625C143.708 59.375 143.854 58.0208 143.938 56.5625C144.062 55.1042 144.167 53.6042 144.25 52.0625C144.333 50.4792 144.396 48.875 144.438 47.25C144.521 45.625 144.604 44.0208 144.688 42.4375C144.729 41.6875 144.812 40.9583 144.938 40.25C145.104 39.5417 145.25 38.8125 145.375 38.0625C145.542 37.3125 145.667 36.5417 145.75 35.75C145.875 34.9583 145.938 34.0833 145.938 33.125C145.938 32.25 145.854 31.4375 145.688 30.6875C145.562 29.9375 145.417 29.1667 145.25 28.375C145.083 27.5833 144.917 26.75 144.75 25.875C144.625 24.9583 144.562 23.9167 144.562 22.75C144.562 22 144.667 21.1875 144.875 20.3125C145.125 19.3958 145.417 18.4583 145.75 17.5C146.083 16.5 146.438 15.4792 146.812 14.4375C147.188 13.3958 147.542 12.3333 147.875 11.25C148.042 10.7083 148.146 10.1667 148.188 9.625C148.229 9.08333 148.25 8.58333 148.25 8.125C148.25 7.625 148.271 7.20833 148.312 6.875C148.354 6.54167 148.458 6.29167 148.625 6.125C148.708 5.95833 148.979 5.77083 149.438 5.5625C149.896 5.35417 150.375 5.14583 150.875 4.9375C151.417 4.6875 151.917 4.5 152.375 4.375C152.875 4.20833 153.208 4.10417 153.375 4.0625C153.958 4.0625 154.479 4.25 154.938 4.625C155.438 4.95833 156.104 5.20833 156.938 5.375C158.146 5.625 159.333 5.79167 160.5 5.875C161.708 5.95833 162.812 6.0625 163.812 6.1875C164.854 6.3125 165.792 6.5 166.625 6.75C167.5 7 168.208 7.4375 168.75 8.0625C169.333 8.6875 169.875 9.5 170.375 10.5C170.875 11.4583 171.354 12.4792 171.812 13.5625C172.312 14.6458 172.792 15.75 173.25 16.875C173.75 18 174.25 19.0208 174.75 19.9375C175.208 20.7708 175.75 21.5417 176.375 22.25C177 22.9167 177.479 23.6042 177.812 24.3125C178.062 24.7708 178.208 25.3125 178.25 25.9375C178.292 26.5208 178.458 27.0417 178.75 27.5C178.875 27.7917 179.271 28.5208 179.938 29.6875C180.604 30.8542 181.333 32.1042 182.125 33.4375C182.958 34.7292 183.708 35.8958 184.375 36.9375C185.083 37.9792 185.542 38.5 185.75 38.5C186.25 38.5 186.708 38.1458 187.125 37.4375C187.583 36.7292 188.021 35.8542 188.438 34.8125C188.854 33.7708 189.292 32.6667 189.75 31.5C190.208 30.2917 190.708 29.2083 191.25 28.25C191.917 27.1667 192.667 26.1458 193.5 25.1875C194.333 24.1875 195.042 23.0833 195.625 21.875C196 21.0833 196.375 20.0625 196.75 18.8125C197.167 17.5625 197.604 16.25 198.062 14.875C198.521 13.4583 199.021 12.0417 199.562 10.625C200.146 9.20833 200.792 7.9375 201.5 6.8125C202.208 5.64583 203 4.70833 203.875 4C204.75 3.29167 205.75 2.9375 206.875 2.9375C207.417 2.9375 207.875 3.02083 208.25 3.1875C208.625 3.3125 209 3.5 209.375 3.75C209.792 4 210.25 4.27083 210.75 4.5625C211.25 4.85417 211.875 5.125 212.625 5.375C213.333 5.58333 214.042 5.75 214.75 5.875C215.5 6 216.208 6.125 216.875 6.25C217.542 6.375 218.146 6.54167 218.688 6.75C219.271 6.91667 219.771 7.20833 220.188 7.625C220.604 8.08333 220.938 8.66667 221.188 9.375C221.438 10.0833 221.625 10.8542 221.75 11.6875C221.917 12.5208 222.021 13.4167 222.062 14.375C222.146 15.3333 222.208 16.2917 222.25 17.25C222.25 18.6667 222.208 20.0417 222.125 21.375C222.042 22.6667 222 23.8958 222 25.0625C222 26.0208 222.062 26.8542 222.188 27.5625C222.354 28.2708 222.521 29 222.688 29.75C222.896 30.4583 223.083 31.2708 223.25 32.1875C223.417 33.1042 223.5 34.2292 223.5 35.5625C223.5 36.8542 223.458 38.2083 223.375 39.625C223.292 41 223.25 42.3333 223.25 43.625C223.25 45.2083 223.354 46.4792 223.562 47.4375C223.812 48.3542 224.104 49.125 224.438 49.75C224.771 50.375 225.125 50.9583 225.5 51.5C225.875 52.0417 226.208 52.7083 226.5 53.5C226.625 53.8333 226.75 54.3125 226.875 54.9375C227 55.5625 227.125 56.2292 227.25 56.9375C227.375 57.6042 227.479 58.2708 227.562 58.9375C227.646 59.6042 227.708 60.1667 227.75 60.625ZM294.125 40.4375C294.125 41.3125 293.979 42 293.688 42.5C293.396 42.9583 293.146 43.5833 292.938 44.375C292.521 46.2083 292.146 48.2917 291.812 50.625C291.521 52.9167 291.083 55.1458 290.5 57.3125C289.958 59.4375 289.167 61.3333 288.125 63C287.125 64.625 285.708 65.6667 283.875 66.125C283.417 66.25 282.833 66.3333 282.125 66.375C281.458 66.4167 280.708 66.4583 279.875 66.5C279.083 66.5417 278.25 66.6042 277.375 66.6875C276.5 66.7292 275.646 66.8125 274.812 66.9375C273.604 67.1458 272.5 67.4375 271.5 67.8125C270.542 68.1875 269.667 68.4375 268.875 68.5625C268.208 68.6458 267.417 68.7083 266.5 68.75C265.583 68.75 264.708 68.7708 263.875 68.8125C263.083 68.8125 262.396 68.875 261.812 69C261.229 69.0833 260.938 69.25 260.938 69.5C260.938 71.375 261.104 73.3542 261.438 75.4375C261.771 77.4792 262.125 79.5417 262.5 81.625C262.875 83.6667 263.229 85.6875 263.562 87.6875C263.896 89.6458 264.062 91.5 264.062 93.25C264.062 93.7083 264.021 94.2292 263.938 94.8125C263.896 95.3958 263.771 96 263.562 96.625C263.396 97.25 263.125 97.875 262.75 98.5C262.417 99.125 261.958 99.6875 261.375 100.188C260.833 100.562 260.083 100.771 259.125 100.812C258.167 100.896 257.208 101.208 256.25 101.75C255.833 101.958 255.5 102.208 255.25 102.5C255.042 102.792 254.792 103.062 254.5 103.312C254.25 103.604 253.938 103.833 253.562 104C253.188 104.208 252.625 104.312 251.875 104.312C251.25 104.312 250.708 104.229 250.25 104.062C249.792 103.896 249.354 103.688 248.938 103.438C248.521 103.229 248.104 103 247.688 102.75C247.312 102.5 246.875 102.292 246.375 102.125C245.292 101.75 244.271 101.438 243.312 101.188C242.354 100.979 241.5 100.667 240.75 100.25C240 99.875 239.396 99.3125 238.938 98.5625C238.521 97.8542 238.312 96.7708 238.312 95.3125C238.312 94.5625 238.396 93.75 238.562 92.875C238.729 92 238.812 91.1458 238.812 90.3125C238.812 88.3125 238.688 86.4375 238.438 84.6875C238.188 82.8958 238.062 81.4583 238.062 80.375C238.062 79.875 238.188 79.2917 238.438 78.625C238.729 77.9167 239.042 77.2083 239.375 76.5C239.708 75.7917 240 75.125 240.25 74.5C240.542 73.875 240.708 73.3542 240.75 72.9375C240.833 72.3958 240.896 71.8958 240.938 71.4375C240.979 70.9792 241 70.5 241 70C241 68.875 240.917 67.75 240.75 66.625C240.625 65.5 240.458 64.3958 240.25 63.3125C240.083 62.2292 239.917 61.1667 239.75 60.125C239.625 59.0833 239.562 58.0625 239.562 57.0625C239.562 54.2292 239.625 51.2917 239.75 48.25C239.917 45.1667 240.062 42.0625 240.188 38.9375C240.354 35.7708 240.5 32.5833 240.625 29.375C240.792 26.125 240.875 22.8958 240.875 19.6875C240.875 18.9792 240.812 18.4167 240.688 18C240.604 17.5833 240.333 17.375 239.875 17.375C239.5 17.375 239.062 17.4375 238.562 17.5625C238.104 17.6875 237.583 17.8125 237 17.9375C236.458 18.0625 235.917 18.1875 235.375 18.3125C234.833 18.4375 234.312 18.5 233.812 18.5C233.396 18.5 233.104 18.4583 232.938 18.375C232.771 18.3333 232.5 18.2083 232.125 18C231.792 17.7917 231.438 17.5417 231.062 17.25C230.729 16.9583 230.438 16.6458 230.188 16.3125C229.896 15.9375 229.75 15.5625 229.75 15.1875C229.75 14.6875 229.917 14.125 230.25 13.5C230.542 12.875 230.75 12.25 230.875 11.625C231.125 10.6667 231.208 9.89583 231.125 9.3125C231.083 8.72917 231.25 8.16667 231.625 7.625C231.958 7.29167 232.417 7.02083 233 6.8125C233.625 6.5625 234.271 6.375 234.938 6.25C235.604 6.08333 236.25 5.97917 236.875 5.9375C237.542 5.85417 238.062 5.79167 238.438 5.75C240.854 5.5 243.625 5.375 246.75 5.375C248.75 5.375 250.792 5.4375 252.875 5.5625C255 5.64583 257.062 5.79167 259.062 6C261.104 6.16667 263.062 6.39583 264.938 6.6875C266.812 6.97917 268.521 7.29167 270.062 7.625C271.646 8 273.146 8.58333 274.562 9.375C275.979 10.1667 277.312 11.1042 278.562 12.1875C279.812 13.2292 281 14.375 282.125 15.625C283.25 16.8333 284.354 18.0208 285.438 19.1875C285.979 19.8125 286.5 20.3958 287 20.9375C287.5 21.4792 287.938 22 288.312 22.5C288.729 22.9583 289.042 23.4375 289.25 23.9375C289.5 24.4375 289.625 24.9792 289.625 25.5625V27C289.625 27.6667 289.708 28.2083 289.875 28.625C290.042 29.0417 290.229 29.4167 290.438 29.75C290.646 30.0417 290.875 30.3542 291.125 30.6875C291.375 30.9792 291.604 31.3542 291.812 31.8125C291.938 32.2292 291.979 32.7708 291.938 33.4375C291.896 34.1042 291.979 34.7292 292.188 35.3125C292.521 36.4792 292.917 37.4375 293.375 38.1875C293.875 38.8958 294.125 39.6458 294.125 40.4375ZM272.5 38.5C272.5 38.125 272.333 37.5625 272 36.8125C271.708 36.0208 271.562 35.0833 271.562 34V31.4375C271.562 29.3958 271.271 27.5417 270.688 25.875C270.146 24.2083 269.417 22.7917 268.5 21.625C267.625 20.4167 266.625 19.5 265.5 18.875C264.417 18.2083 263.333 17.875 262.25 17.875C261.583 17.875 260.938 17.9167 260.312 18C259.729 18.0833 259.042 18.125 258.25 18.125C257.75 18.125 257.188 18.0833 256.562 18C255.979 17.9167 255.354 17.75 254.688 17.5C254.729 17.9583 254.771 18.7917 254.812 20C254.896 21.2083 254.979 22.6667 255.062 24.375C255.146 26.0833 255.25 27.9583 255.375 30C255.5 32 255.625 34.0208 255.75 36.0625C255.875 38.1042 256 40.0833 256.125 42C256.25 43.9167 256.375 45.6042 256.5 47.0625C256.625 48.5208 256.75 49.7083 256.875 50.625C257 51.5 257.125 51.9375 257.25 51.9375C257.75 51.9375 258.208 51.875 258.625 51.75C259.083 51.5833 259.5 51.3958 259.875 51.1875C260.292 50.9792 260.708 50.7708 261.125 50.5625C261.542 50.3542 262 50.1667 262.5 50C263 49.8333 263.562 49.7083 264.188 49.625C264.812 49.5417 265.438 49.4375 266.062 49.3125C266.688 49.1875 267.271 49.0208 267.812 48.8125C268.396 48.6042 268.896 48.3125 269.312 47.9375C269.812 47.4375 270.083 46.6875 270.125 45.6875C270.208 44.6875 270.438 43.4792 270.812 42.0625C271.021 41.3542 271.333 40.7083 271.75 40.125C272.167 39.5 272.417 38.9583 272.5 38.5ZM353.75 53.75V54.5C353.75 55.6667 353.688 56.9375 353.562 58.3125C353.438 59.6458 353.375 60.8958 353.375 62.0625C353.375 62.7708 353.396 63.5 353.438 64.25C353.479 64.9583 353.5 65.6667 353.5 66.375C353.5 67.25 353.396 68.0625 353.188 68.8125C352.979 69.5208 352.729 70.2292 352.438 70.9375C352.146 71.6042 351.812 72.3125 351.438 73.0625C351.104 73.7708 350.812 74.5833 350.562 75.5C350.354 76.25 350.167 77.0208 350 77.8125C349.875 78.5625 349.75 79.3125 349.625 80.0625C349.5 80.8125 349.354 81.5208 349.188 82.1875C349.062 82.8125 348.875 83.3542 348.625 83.8125C347.958 85.1458 346.979 86.375 345.688 87.5C344.396 88.625 343.062 89.6042 341.688 90.4375C340.354 91.2292 339.146 91.8542 338.062 92.3125C336.979 92.7708 336.292 93 336 93C335.083 93 334.167 92.9167 333.25 92.75C332.375 92.5833 331.458 92.5 330.5 92.5C328.75 92.5 326.958 92.6458 325.125 92.9375C323.333 93.2708 321.542 93.4375 319.75 93.4375C318.625 93.4375 317.625 93.3333 316.75 93.125C315.917 92.9583 315 92.625 314 92.125C313 91.625 311.833 90.9375 310.5 90.0625C309.208 89.1458 307.542 87.9583 305.5 86.5C304.5 85.7917 303.625 85.1875 302.875 84.6875C302.167 84.1458 301.542 83.4792 301 82.6875C300.458 81.8958 299.979 80.8542 299.562 79.5625C299.146 78.2708 298.75 76.5208 298.375 74.3125C298.375 74.1042 298.354 73.9167 298.312 73.75C298.271 73.5833 298.25 73.3958 298.25 73.1875C298.25 72.5208 298.292 71.875 298.375 71.25C298.458 70.5833 298.5 69.8958 298.5 69.1875C298.5 68.4792 298.396 67.8333 298.188 67.25C297.979 66.625 297.75 66.0208 297.5 65.4375C297.25 64.8542 297.021 64.2917 296.812 63.75C296.604 63.2083 296.479 62.6458 296.438 62.0625C296.438 61.7292 296.562 61.2292 296.812 60.5625C297.062 59.8958 297.188 59.2292 297.188 58.5625V56.4375C297.188 55.8958 297.271 55.3958 297.438 54.9375C297.604 54.4792 297.792 54.0417 298 53.625C298.25 53.1667 298.458 52.7083 298.625 52.25C298.792 51.75 298.875 51.2083 298.875 50.625C298.875 49.2917 298.708 47.9583 298.375 46.625C298.083 45.25 297.938 43.8958 297.938 42.5625C297.938 41.4375 298.229 40.2292 298.812 38.9375C299.396 37.6042 299.917 36.0833 300.375 34.375C300.708 33.1667 300.958 31.875 301.125 30.5C301.333 29.0833 301.604 27.7292 301.938 26.4375C302.396 24.6458 302.896 22.8958 303.438 21.1875C303.979 19.4792 304.542 17.5625 305.125 15.4375C305.333 14.6042 305.583 13.8333 305.875 13.125C306.167 12.375 306.312 11.7083 306.312 11.125C306.312 10.6667 306.271 10.2292 306.188 9.8125C306.104 9.35417 306.062 8.9375 306.062 8.5625C306.062 7.89583 306.396 7.27083 307.062 6.6875C307.729 6.0625 308.667 5.75 309.875 5.75C311.042 5.75 312.146 5.97917 313.188 6.4375C314.271 6.85417 315.208 7.39583 316 8.0625C316.833 8.72917 317.479 9.47917 317.938 10.3125C318.438 11.1042 318.688 11.875 318.688 12.625C318.688 13.2917 318.625 14.0625 318.5 14.9375C318.375 15.7708 318.208 16.6042 318 17.4375C317.833 18.2708 317.646 19.0833 317.438 19.875C317.271 20.625 317.146 21.25 317.062 21.75C316.604 24.1667 316.146 26.6458 315.688 29.1875C315.271 31.7292 314.875 34.3125 314.5 36.9375C314.167 39.5208 313.896 42.1667 313.688 44.875C313.479 47.5417 313.396 50.2292 313.438 52.9375C313.438 55.6875 313.562 58.4583 313.812 61.25C313.896 61.9167 313.938 62.6667 313.938 63.5C313.938 64.3333 313.938 65.1667 313.938 66C313.979 66.8333 314.042 67.6042 314.125 68.3125C314.208 69.0208 314.375 69.5833 314.625 70C314.792 70.2917 315.208 70.625 315.875 71C316.583 71.375 317.438 71.75 318.438 72.125C319.438 72.4583 320.5 72.75 321.625 73C322.75 73.2083 323.833 73.3125 324.875 73.3125C326.375 73.3125 327.458 73.0208 328.125 72.4375C328.833 71.8542 329.312 71.0833 329.562 70.125C329.812 69.125 329.917 68 329.875 66.75C329.833 65.4583 329.854 64.1458 329.938 62.8125C330.021 61.2292 330.208 59.6875 330.5 58.1875C330.833 56.6875 330.958 55.3333 330.875 54.125C330.792 52.5833 330.521 50.875 330.062 49C329.604 47.0833 329.312 45.125 329.188 43.125C329.188 42.4167 329.25 41.7083 329.375 41C329.5 40.25 329.562 39.5417 329.562 38.875C329.562 38.3333 329.521 37.6667 329.438 36.875C329.396 36.0833 329.333 35.2292 329.25 34.3125C329.167 33.3542 329.083 32.375 329 31.375C328.958 30.3333 328.938 29.2917 328.938 28.25C328.938 25.625 329.229 23.5 329.812 21.875C330.438 20.25 331.688 19.4375 333.562 19.4375C334.188 19.4375 334.875 19.4792 335.625 19.5625C336.375 19.6458 337.125 19.7292 337.875 19.8125C338.583 19.8125 339.396 19.75 340.312 19.625C341.229 19.5 342.125 19.4375 343 19.4375C343.542 19.4375 344.188 19.5833 344.938 19.875C345.688 20.1667 346.417 20.6042 347.125 21.1875C347.875 21.7708 348.542 22.5417 349.125 23.5C349.75 24.4583 350.229 25.5833 350.562 26.875C350.812 28 350.958 29.2292 351 30.5625C351.042 31.8958 351.167 33.1667 351.375 34.375C351.625 35.7917 351.896 37.2083 352.188 38.625C352.479 40.0417 352.625 41.3542 352.625 42.5625C352.625 43.3542 352.604 44.1458 352.562 44.9375C352.521 45.6875 352.5 46.4375 352.5 47.1875C352.5 48.5208 352.688 49.6667 353.062 50.625C353.438 51.5417 353.667 52.5833 353.75 53.75ZM417.438 77.25C417.521 77.5833 417.583 77.9375 417.625 78.3125C417.667 78.6458 417.688 78.9792 417.688 79.3125C417.688 81.9792 417.25 84.25 416.375 86.125C415.5 88 414.271 89.5833 412.688 90.875C411.146 92.125 409.312 93.125 407.188 93.875C405.104 94.6667 402.833 95.25 400.375 95.625C397.917 96.0417 395.333 96.3125 392.625 96.4375C389.958 96.5625 387.271 96.625 384.562 96.625C382.979 96.625 381.438 96.5833 379.938 96.5C378.479 96.4583 377.104 96.375 375.812 96.25C374.229 96.0417 372.812 95.6458 371.562 95.0625C370.354 94.4792 369.167 94.0625 368 93.8125C367.042 93.6042 365.938 93.4583 364.688 93.375C363.438 93.3333 362.25 93.2083 361.125 93C360 92.8333 359.042 92.5208 358.25 92.0625C357.5 91.6042 357.125 90.8958 357.125 89.9375C357.125 89.5625 357.188 89.1458 357.312 88.6875C357.479 88.2292 357.729 87.7083 358.062 87.125V87.25C358.104 87.25 358.271 87.125 358.562 86.875C358.854 86.5833 359.146 86.2708 359.438 85.9375C359.729 85.6042 359.979 85.3125 360.188 85.0625C360.396 84.7708 360.479 84.6458 360.438 84.6875C361.062 84.2708 361.646 84.0625 362.188 84.0625C362.771 84.0208 363.25 83.8958 363.625 83.6875C364.042 83.4792 364.354 83.0625 364.562 82.4375C364.812 81.8125 364.938 80.6875 364.938 79.0625C364.938 77.6458 364.896 76.1875 364.812 74.6875C364.771 73.1458 364.708 71.7292 364.625 70.4375C364.583 69.1042 364.542 67.9792 364.5 67.0625C364.458 66.1042 364.438 65.5 364.438 65.25C364.438 63.3333 364.458 61.3333 364.5 59.25C364.542 57.125 364.562 54.9375 364.562 52.6875C364.562 50.6458 364.479 48.6042 364.312 46.5625C364.146 44.4792 363.958 42.4375 363.75 40.4375C363.583 38.4375 363.417 36.4792 363.25 34.5625C363.083 32.6042 363 30.75 363 29C363 27.875 363.083 26.8333 363.25 25.875C363.458 24.9167 363.667 23.9792 363.875 23.0625C364.125 22.1458 364.333 21.25 364.5 20.375C364.708 19.4583 364.812 18.4583 364.812 17.375C364.812 15.9167 364.708 14.5208 364.5 13.1875C364.292 11.8125 364.188 10.3958 364.188 8.9375C364.188 7.52083 364.229 6.29167 364.312 5.25C364.438 4.20833 364.688 3.35417 365.062 2.6875C365.438 1.97917 365.958 1.45833 366.625 1.125C367.292 0.791667 368.188 0.625 369.312 0.625C370.729 0.625 371.958 0.791667 373 1.125C374.042 1.41667 375 1.79167 375.875 2.25C376.75 2.70833 377.583 3.1875 378.375 3.6875C379.167 4.1875 380.062 4.60417 381.062 4.9375C382.354 5.39583 383.438 5.66667 384.312 5.75C385.188 5.83333 385.938 5.97917 386.562 6.1875C387.229 6.35417 387.792 6.70833 388.25 7.25C388.708 7.79167 389.167 8.72917 389.625 10.0625C389.75 10.4375 389.875 10.9375 390 11.5625C390.167 12.1458 390.312 12.8333 390.438 13.625C390.562 14.375 390.646 15.1875 390.688 16.0625C390.771 16.8958 390.812 17.75 390.812 18.625C390.812 20.75 390.708 23 390.5 25.375C390.292 27.75 390.188 30 390.188 32.125C390.188 33.2083 390.25 34.2917 390.375 35.375C390.5 36.4167 390.562 37.4583 390.562 38.5C390.438 41.5 390.229 44.5208 389.938 47.5625C389.688 50.5625 389.417 53.6042 389.125 56.6875C388.875 59.7708 388.646 62.9167 388.438 66.125C388.229 69.2917 388.125 72.5417 388.125 75.875C388.125 76.2083 388.104 76.5417 388.062 76.875C388.021 77.1667 388.021 77.4375 388.062 77.6875C388.104 77.9375 388.229 78.1458 388.438 78.3125C388.646 78.4792 389 78.5625 389.5 78.5625C391.417 78.5625 393.417 78.3958 395.5 78.0625C397.583 77.6875 399.562 77.2917 401.438 76.875C403.354 76.4167 405.104 76.0208 406.688 75.6875C408.271 75.3125 409.5 75.125 410.375 75.125C411.083 75.125 411.812 75.1667 412.562 75.25C413.354 75.2917 414.083 75.3958 414.75 75.5625C415.458 75.6875 416.042 75.8958 416.5 76.1875C417 76.4792 417.312 76.8333 417.438 77.25Z" fill="black"/>
<path d="M478.964 75.6963C478.85 75.833 478.645 75.9583 478.349 76.0723C478.075 76.1634 477.768 76.2546 477.426 76.3457C477.107 76.4368 476.788 76.528 476.469 76.6191C476.173 76.6875 475.933 76.7559 475.751 76.8242C475.25 76.9837 474.794 77.1204 474.384 77.2344C473.996 77.3483 473.666 77.485 473.393 77.6445C473.119 77.7812 472.903 77.9521 472.743 78.1572C472.606 78.3395 472.538 78.5902 472.538 78.9092C472.538 79.2054 472.572 79.5358 472.641 79.9004C472.709 80.2422 472.777 80.584 472.846 80.9258C472.914 81.2676 472.982 81.598 473.051 81.917C473.119 82.236 473.153 82.5208 473.153 82.7715C473.153 83.0221 473.142 83.25 473.119 83.4551C473.096 83.6602 473.085 83.8538 473.085 84.0361C473.085 84.3551 473.142 84.6286 473.256 84.8564C473.37 85.0615 473.507 85.278 473.666 85.5059C473.826 85.7109 473.996 85.9274 474.179 86.1553C474.361 86.3831 474.509 86.6566 474.623 86.9756C474.737 87.2262 474.862 87.6136 474.999 88.1377C475.136 88.639 475.261 89.1973 475.375 89.8125C475.512 90.4277 475.614 91.0544 475.683 91.6924C475.774 92.3304 475.819 92.9229 475.819 93.4697C475.819 94.2673 475.66 94.8825 475.341 95.3154C475.045 95.7712 474.657 96.1016 474.179 96.3066C473.723 96.5345 473.222 96.6712 472.675 96.7168C472.151 96.7852 471.661 96.8193 471.205 96.8193C470.476 96.8193 469.781 96.6143 469.12 96.2041C468.459 95.8167 467.878 95.2812 467.377 94.5977C466.876 93.9141 466.477 93.1165 466.181 92.2051C465.884 91.3164 465.736 90.3594 465.736 89.334C465.736 89.1517 465.736 88.9466 465.736 88.7188C465.736 88.4909 465.759 88.2516 465.805 88.001C465.326 88.0465 464.984 88.1947 464.779 88.4453C464.597 88.696 464.46 89.0036 464.369 89.3682C464.278 89.71 464.187 90.0745 464.096 90.4619C464.027 90.8493 463.879 91.2025 463.651 91.5215C463.355 91.9316 462.842 92.3532 462.113 92.7861C461.407 93.2419 460.621 93.6406 459.755 93.9824C458.889 94.347 458.012 94.6432 457.123 94.8711C456.234 95.099 455.471 95.2129 454.833 95.2129C454.149 95.2129 453.614 95.0876 453.227 94.8369C452.862 94.5863 452.52 94.3128 452.201 94.0166C451.905 93.7432 451.563 93.4811 451.176 93.2305C450.811 92.9798 450.299 92.8545 449.638 92.8545H448.749C447.792 92.8545 446.938 92.7292 446.186 92.4785C445.456 92.2279 444.761 91.9202 444.101 91.5557C443.463 91.1683 442.836 90.7581 442.221 90.3252C441.628 89.8923 440.979 89.4935 440.272 89.1289C439.885 88.9238 439.509 88.6846 439.145 88.4111C438.78 88.1377 438.45 87.7959 438.153 87.3857C437.857 86.9528 437.618 86.4287 437.436 85.8135C437.276 85.1982 437.196 84.4349 437.196 83.5234C437.196 83.1133 437.23 82.7487 437.299 82.4297C437.367 82.0879 437.447 81.7575 437.538 81.4385C437.629 81.1195 437.709 80.8005 437.777 80.4814C437.846 80.1624 437.88 79.8206 437.88 79.4561C437.88 79.2054 437.868 78.9775 437.846 78.7725C437.823 78.5674 437.812 78.3509 437.812 78.123C437.812 77.7129 437.88 77.3369 438.017 76.9951C438.176 76.6305 438.336 76.2773 438.495 75.9355C438.677 75.571 438.837 75.2064 438.974 74.8418C439.133 74.4772 439.213 74.0785 439.213 73.6455C439.213 73.167 439.167 72.7113 439.076 72.2783C438.985 71.8226 438.882 71.3669 438.769 70.9111C438.655 70.4326 438.552 69.9541 438.461 69.4756C438.37 68.9743 438.324 68.4502 438.324 67.9033C438.324 67.4932 438.358 66.9463 438.427 66.2627C438.495 65.5791 438.62 64.9183 438.803 64.2803C438.848 64.0752 438.951 63.8815 439.11 63.6992C439.27 63.5169 439.372 63.3346 439.418 63.1523C439.486 62.8105 439.532 62.4915 439.555 62.1953C439.6 61.8763 439.634 61.5687 439.657 61.2725C439.703 60.9762 439.748 60.6914 439.794 60.418C439.84 60.1217 439.931 59.8255 440.067 59.5293C440.341 58.8229 440.683 58.1621 441.093 57.5469C441.526 56.9089 441.833 56.2594 442.016 55.5986C442.198 55.0062 442.312 54.391 442.357 53.7529C442.403 53.1149 442.506 52.5225 442.665 51.9756C442.756 51.6338 442.882 51.2122 443.041 50.7109C443.201 50.1868 443.383 49.6514 443.588 49.1045C443.816 48.5576 444.066 48.0335 444.34 47.5322C444.613 47.0309 444.91 46.6208 445.229 46.3018C445.548 45.9827 445.867 45.7435 446.186 45.584C446.505 45.4245 446.858 45.2992 447.245 45.208C447.632 45.1169 448.065 45.0371 448.544 44.9688C449.022 44.9004 449.581 44.7865 450.219 44.627C450.811 44.4902 451.495 44.2965 452.27 44.0459C453.044 43.7952 453.83 43.556 454.628 43.3281C455.425 43.0775 456.2 42.8724 456.952 42.7129C457.704 42.5306 458.354 42.4395 458.9 42.4395C459.698 42.4395 460.473 42.6217 461.225 42.9863C461.977 43.3281 462.694 43.7269 463.378 44.1826C464.084 44.6156 464.757 45.0485 465.395 45.4814C466.033 45.8916 466.659 46.165 467.274 46.3018C467.844 46.4385 468.391 46.5296 468.915 46.5752C469.462 46.598 469.975 46.6322 470.453 46.6777C470.954 46.7233 471.41 46.8145 471.82 46.9512C472.253 47.0651 472.629 47.293 472.948 47.6348C473.222 47.9082 473.438 48.2842 473.598 48.7627C473.757 49.2412 473.894 49.7767 474.008 50.3691C474.122 50.9388 474.224 51.554 474.315 52.2148C474.407 52.8529 474.509 53.4681 474.623 54.0605C474.851 55.0404 475.079 55.9404 475.307 56.7607C475.557 57.5583 475.705 58.2419 475.751 58.8115C475.751 58.971 475.751 59.2786 475.751 59.7344C475.751 60.1673 475.728 60.6458 475.683 61.1699C475.66 61.6712 475.614 62.1497 475.546 62.6055C475.5 63.0612 475.432 63.3916 475.341 63.5967C475.159 63.8929 474.942 64.098 474.691 64.2119C474.464 64.3031 474.179 64.3714 473.837 64.417C473.518 64.4398 473.153 64.4626 472.743 64.4854C472.356 64.5081 471.911 64.5765 471.41 64.6904C471 64.8271 470.635 64.9867 470.316 65.1689C469.997 65.3512 469.69 65.5335 469.394 65.7158C469.12 65.8753 468.847 66.0348 468.573 66.1943C468.323 66.3311 468.038 66.4108 467.719 66.4336C467.582 66.4336 467.297 66.3766 466.864 66.2627C466.454 66.126 466.033 66.0234 465.6 65.9551C465.053 65.9323 464.517 65.9095 463.993 65.8867C463.469 65.8411 462.991 65.7728 462.558 65.6816C462.125 65.5677 461.771 65.3968 461.498 65.1689C461.247 64.9411 461.122 64.6221 461.122 64.2119C461.122 63.8929 461.156 63.5055 461.225 63.0498C461.293 62.5941 461.327 62.07 461.327 61.4775C461.327 60.8167 461.213 60.2243 460.985 59.7002C460.757 59.1533 460.644 58.652 460.644 58.1963C460.644 57.695 460.644 57.1937 460.644 56.6924C460.644 56.1911 460.564 55.7467 460.404 55.3594C460.245 54.9492 459.96 54.6188 459.55 54.3682C459.162 54.1175 458.57 53.9922 457.772 53.9922C457.34 53.9922 456.861 54.015 456.337 54.0605C455.813 54.1061 455.312 54.1631 454.833 54.2314C454.354 54.2998 453.922 54.3796 453.534 54.4707C453.17 54.5618 452.93 54.653 452.816 54.7441C452.566 54.972 452.406 55.4847 452.338 56.2822C452.27 57.057 452.144 57.9912 451.962 59.085C451.848 59.7458 451.666 60.4066 451.415 61.0674C451.187 61.7282 451.016 62.3548 450.902 62.9473C450.788 63.403 450.743 63.8473 450.766 64.2803C450.788 64.6904 450.743 65.112 450.629 65.5449C450.583 65.8184 450.515 66.1488 450.424 66.5361C450.333 66.9007 450.242 67.2995 450.15 67.7324C450.059 68.1654 449.968 68.6097 449.877 69.0654C449.809 69.4984 449.774 69.9085 449.774 70.2959C449.774 70.6833 449.843 71.0365 449.979 71.3555C450.139 71.6517 450.219 72.0277 450.219 72.4834C450.219 73.1442 450.105 73.8506 449.877 74.6025C449.672 75.3545 449.569 76.0951 449.569 76.8242C449.569 77.1432 449.638 77.4053 449.774 77.6104C449.934 77.7926 450.014 78.0661 450.014 78.4307C450.014 78.6357 449.991 78.8408 449.945 79.0459C449.9 79.251 449.877 79.4674 449.877 79.6953C449.877 80.0827 450.025 80.527 450.321 81.0283C450.64 81.5296 450.993 82.0195 451.381 82.498C451.791 82.9538 452.19 83.3639 452.577 83.7285C452.987 84.0703 453.295 84.2868 453.5 84.3779C453.819 84.5602 454.218 84.7425 454.696 84.9248C455.198 85.0843 455.688 85.221 456.166 85.335C456.645 85.4489 457.066 85.54 457.431 85.6084C457.818 85.6768 458.046 85.7109 458.114 85.7109C459.071 85.7109 459.892 85.5173 460.575 85.1299C461.259 84.7197 461.84 84.207 462.318 83.5918C462.82 82.9538 463.241 82.236 463.583 81.4385C463.925 80.6182 464.232 79.7979 464.506 78.9775C463.298 79.2282 462.25 79.513 461.361 79.832C460.473 80.151 459.63 80.3105 458.832 80.3105C458.285 80.3105 457.795 80.2194 457.362 80.0371C457.066 79.946 456.747 79.6839 456.405 79.251C456.086 78.7952 455.79 78.2826 455.517 77.7129C455.243 77.1204 455.015 76.5166 454.833 75.9014C454.651 75.2633 454.56 74.7051 454.56 74.2266C454.56 73.7253 454.674 73.2126 454.901 72.6885C455.152 72.1644 455.448 71.6859 455.79 71.2529C456.155 70.82 456.531 70.4782 456.918 70.2275C457.328 69.9541 457.681 69.8174 457.978 69.8174C458.684 69.8174 459.459 69.9199 460.302 70.125C461.145 70.3301 462.102 70.4326 463.173 70.4326C464.426 70.4326 465.702 70.3757 467.001 70.2617C468.323 70.1478 469.587 70.0908 470.795 70.0908C471.114 70.0908 471.422 70.125 471.718 70.1934C472.014 70.2617 472.333 70.2959 472.675 70.2959C473.336 70.2503 473.996 70.1364 474.657 69.9541C475.318 69.7718 475.967 69.6807 476.605 69.6807C477.471 69.6807 478.155 70.068 478.656 70.8428C479.158 71.5947 479.408 72.6543 479.408 74.0215C479.408 74.3633 479.374 74.6823 479.306 74.9785C479.237 75.2747 479.123 75.514 478.964 75.6963ZM516.459 78.9775C516.505 79.1826 516.539 79.4105 516.562 79.6611C516.584 79.889 516.596 80.1283 516.596 80.3789C516.596 80.9714 516.539 81.5866 516.425 82.2246C516.311 82.8398 516.163 83.4551 515.98 84.0703C515.821 84.6855 515.639 85.278 515.434 85.8477C515.251 86.3945 515.08 86.9072 514.921 87.3857C514.602 88.32 514.363 89.0264 514.203 89.5049C514.044 89.9834 513.884 90.3366 513.725 90.5645C513.565 90.7695 513.36 90.8835 513.109 90.9062C512.882 90.929 512.528 90.9404 512.05 90.9404C511.708 90.9404 511.264 90.8607 510.717 90.7012C510.17 90.5189 509.612 90.2568 509.042 89.915C508.472 89.5505 507.937 89.1061 507.436 88.582C506.957 88.0579 506.627 87.4427 506.444 86.7363C506.444 86.5996 506.49 86.3717 506.581 86.0527C506.672 85.7337 506.718 85.3805 506.718 84.9932C506.695 84.7425 506.649 84.3779 506.581 83.8994C506.535 83.4209 506.467 82.8968 506.376 82.3271C506.285 81.7347 506.182 81.1423 506.068 80.5498C505.977 79.9346 505.863 79.3763 505.727 78.875C505.59 78.3737 505.442 77.9635 505.282 77.6445C505.146 77.3255 504.997 77.166 504.838 77.166C504.245 77.166 503.812 77.2572 503.539 77.4395C503.288 77.599 503.072 77.7812 502.89 77.9863C502.707 78.1686 502.502 78.3509 502.274 78.5332C502.069 78.6927 501.728 78.7725 501.249 78.7725C500.793 78.7725 500.292 78.7269 499.745 78.6357C499.198 78.5218 498.583 78.4079 497.899 78.2939C497.239 78.1572 496.509 78.0433 495.712 77.9521C494.914 77.8382 494.037 77.7812 493.08 77.7812C492.579 77.7812 492.123 77.804 491.713 77.8496C491.303 77.8724 491.029 77.9408 490.893 78.0547C490.642 78.2598 490.46 78.6585 490.346 79.251C490.232 79.8434 490.141 80.5042 490.072 81.2334C490.004 81.9398 489.947 82.6462 489.901 83.3525C489.856 84.0361 489.765 84.583 489.628 84.9932C489.582 85.0615 489.491 85.1982 489.354 85.4033C489.218 85.5856 489.058 85.8135 488.876 86.0869C488.694 86.3376 488.511 86.6224 488.329 86.9414C488.147 87.2376 487.999 87.5225 487.885 87.7959C487.611 88.4111 487.372 89.1175 487.167 89.915C486.985 90.6898 486.757 91.4189 486.483 92.1025C486.233 92.8089 485.914 93.4014 485.526 93.8799C485.139 94.3584 484.615 94.5977 483.954 94.5977C483.521 94.5977 483.111 94.4951 482.724 94.29C482.359 94.085 482.029 93.8457 481.732 93.5723C481.459 93.3216 481.231 93.071 481.049 92.8203C480.867 92.5924 480.764 92.4329 480.741 92.3418C480.468 91.8633 480.194 91.4759 479.921 91.1797C479.67 90.8607 479.431 90.5758 479.203 90.3252C478.975 90.0745 478.793 89.8125 478.656 89.5391C478.52 89.2428 478.451 88.8783 478.451 88.4453C478.451 88.2858 478.463 88.0693 478.485 87.7959C478.485 87.5225 478.508 87.2376 478.554 86.9414C478.576 86.6452 478.611 86.3604 478.656 86.0869C478.702 85.8135 478.747 85.5856 478.793 85.4033C478.839 85.2894 478.918 85.1755 479.032 85.0615C479.169 84.9248 479.294 84.7881 479.408 84.6514C479.545 84.5146 479.659 84.3893 479.75 84.2754C479.864 84.1387 479.921 84.002 479.921 83.8652C479.921 83.6829 479.864 83.512 479.75 83.3525C479.659 83.193 479.613 83.0221 479.613 82.8398C479.613 82.7943 479.625 82.7601 479.647 82.7373C479.67 82.7145 479.682 82.6803 479.682 82.6348C479.91 81.9512 480.183 81.2904 480.502 80.6523C480.844 80.0143 481.163 79.3649 481.459 78.7041C481.778 78.0205 482.051 77.3255 482.279 76.6191C482.53 75.89 482.678 75.0924 482.724 74.2266C482.724 73.8164 482.724 73.3721 482.724 72.8936C482.746 72.415 482.769 71.9365 482.792 71.458C482.838 70.9567 482.895 70.4782 482.963 70.0225C483.054 69.5439 483.179 69.1224 483.339 68.7578C483.362 68.6895 483.464 68.5755 483.646 68.416C483.852 68.2565 484.068 68.0514 484.296 67.8008C484.524 67.5273 484.717 67.2083 484.877 66.8438C485.059 66.4564 485.15 66.0234 485.15 65.5449C485.15 65.2943 485.128 65.0322 485.082 64.7588C485.036 64.4854 485.014 64.2119 485.014 63.9385C485.014 63.6195 485.059 63.3574 485.15 63.1523C485.264 62.9245 485.39 62.7194 485.526 62.5371C485.686 62.332 485.834 62.127 485.971 61.9219C486.13 61.7168 486.256 61.4775 486.347 61.2041C486.529 60.7256 486.632 60.2243 486.654 59.7002C486.677 59.1533 486.688 58.6178 486.688 58.0938C486.688 57.5469 486.7 57.0114 486.723 56.4873C486.768 55.9632 486.882 55.4619 487.064 54.9834C487.11 54.7783 487.213 54.6074 487.372 54.4707C487.532 54.3112 487.691 54.1631 487.851 54.0264C488.033 53.8669 488.192 53.696 488.329 53.5137C488.466 53.3314 488.534 53.1149 488.534 52.8643C488.534 52.682 488.511 52.4997 488.466 52.3174C488.443 52.1123 488.432 51.8958 488.432 51.668C488.432 51.1439 488.546 50.6084 488.773 50.0615C489.024 49.5146 489.298 48.9792 489.594 48.4551C489.89 47.9082 490.152 47.3841 490.38 46.8828C490.631 46.3587 490.756 45.8802 490.756 45.4473V44.7637C490.756 44.3307 490.927 43.8864 491.269 43.4307C491.633 42.9749 492.123 42.5648 492.738 42.2002C493.354 41.8128 494.06 41.5052 494.857 41.2773C495.678 41.0267 496.532 40.9014 497.421 40.9014C497.922 40.9014 498.367 40.9697 498.754 41.1064C499.164 41.2204 499.574 41.3571 499.984 41.5166C500.395 41.6761 500.839 41.8356 501.317 41.9951C501.796 42.1318 502.354 42.2116 502.992 42.2344C503.357 42.2344 503.733 42.2002 504.12 42.1318C504.53 42.0407 504.94 41.9495 505.351 41.8584C505.761 41.7445 506.171 41.6533 506.581 41.585C506.991 41.4938 507.39 41.4482 507.777 41.4482C507.982 41.4482 508.244 41.5166 508.563 41.6533C508.905 41.7673 509.247 41.9268 509.589 42.1318C509.953 42.3369 510.295 42.5762 510.614 42.8496C510.956 43.123 511.241 43.4079 511.469 43.7041C511.879 44.2282 512.152 44.889 512.289 45.6865C512.449 46.484 512.562 47.3385 512.631 48.25C512.722 49.1615 512.825 50.0729 512.938 50.9844C513.052 51.8958 513.269 52.7161 513.588 53.4453C513.702 53.7415 513.839 54.015 513.998 54.2656C514.158 54.4935 514.306 54.7441 514.442 55.0176C514.602 55.291 514.727 55.61 514.818 55.9746C514.932 56.3164 514.989 56.7493 514.989 57.2734C514.989 57.9115 514.955 58.5609 514.887 59.2217C514.818 59.8597 514.784 60.4749 514.784 61.0674C514.784 61.5459 514.841 61.9447 514.955 62.2637C515.092 62.5827 515.229 62.8675 515.365 63.1182C515.502 63.346 515.627 63.5739 515.741 63.8018C515.878 64.0296 515.946 64.3031 515.946 64.6221C515.946 65.055 515.878 65.5449 515.741 66.0918C515.604 66.6387 515.536 67.1742 515.536 67.6982C515.536 68.1995 515.616 68.6553 515.775 69.0654C515.935 69.4756 515.992 69.8857 515.946 70.2959C515.924 70.7288 515.844 71.1618 515.707 71.5947C515.57 72.0277 515.422 72.4492 515.263 72.8594C515.103 73.2695 514.955 73.6797 514.818 74.0898C514.682 74.5 514.613 74.8988 514.613 75.2861C514.613 75.6051 514.693 75.9128 514.853 76.209C515.012 76.5052 515.194 76.8014 515.399 77.0977C515.604 77.3939 515.81 77.7015 516.015 78.0205C516.22 78.3167 516.368 78.6357 516.459 78.9775ZM503.231 70.0908C503.368 69.8857 503.437 69.6237 503.437 69.3047C503.437 68.9857 503.38 68.6211 503.266 68.2109C503.152 67.8008 503.026 67.4134 502.89 67.0488C502.776 66.6615 502.662 66.3197 502.548 66.0234C502.434 65.7272 502.377 65.5221 502.377 65.4082C502.377 65.1803 502.411 64.9525 502.479 64.7246C502.548 64.4967 502.582 64.2575 502.582 64.0068C502.582 63.4144 502.457 62.8105 502.206 62.1953C501.955 61.5801 501.671 61.0218 501.352 60.5205C501.055 59.9964 500.771 59.5521 500.497 59.1875C500.224 58.8001 500.053 58.5381 499.984 58.4014C499.825 58.0368 499.711 57.6722 499.643 57.3076C499.597 56.9202 499.529 56.5557 499.438 56.2139C499.369 55.8721 499.267 55.5758 499.13 55.3252C498.993 55.0745 498.765 54.8809 498.446 54.7441C497.991 56.1113 497.501 57.4557 496.977 58.7773C496.475 60.099 495.974 61.4434 495.473 62.8105C494.994 64.1549 494.538 65.5449 494.105 66.9805C493.695 68.3932 493.354 69.8743 493.08 71.4238C493.878 71.3099 494.698 71.2415 495.541 71.2188C496.384 71.1732 497.284 71.082 498.241 70.9453C498.378 70.9225 498.708 70.877 499.232 70.8086C499.757 70.7402 500.303 70.6605 500.873 70.5693C501.465 70.4782 501.99 70.387 502.445 70.2959C502.924 70.2048 503.186 70.1364 503.231 70.0908ZM568.822 74.8418C568.822 76.1178 568.731 77.4622 568.549 78.875C568.367 80.2878 568.104 81.6208 567.763 82.874C567.444 84.1273 567.034 85.221 566.532 86.1553C566.054 87.0667 565.507 87.682 564.892 88.001C564.641 88.1377 564.276 88.2858 563.798 88.4453C563.342 88.582 562.818 88.7074 562.226 88.8213C561.656 88.9352 561.063 89.0264 560.448 89.0947C559.833 89.1631 559.241 89.1973 558.671 89.1973C558.306 89.1973 557.862 89.1289 557.338 88.9922C556.814 88.8555 556.312 88.6504 555.834 88.377C555.355 88.0807 554.945 87.7275 554.604 87.3174C554.285 86.8844 554.125 86.3945 554.125 85.8477C554.125 85.3919 554.114 84.9248 554.091 84.4463C554.068 83.9678 554.057 83.5007 554.057 83.0449C554.057 81.5638 554.079 80.0371 554.125 78.4648C554.171 76.8698 554.193 75.2406 554.193 73.5771C554.193 72.0277 554.148 70.4668 554.057 68.8945C553.988 67.3223 553.852 65.7158 553.646 64.0752C553.122 64.417 552.644 64.8613 552.211 65.4082C551.801 65.9551 551.402 66.5475 551.015 67.1855C550.65 67.8008 550.297 68.4388 549.955 69.0996C549.613 69.7604 549.249 70.3757 548.861 70.9453C548.52 71.4694 548.109 71.9137 547.631 72.2783C547.152 72.6429 546.776 73.0531 546.503 73.5088C546.229 73.9645 546.07 74.4089 546.024 74.8418C545.979 75.2747 545.865 75.6621 545.683 76.0039C545.5 76.3229 545.17 76.585 544.691 76.79C544.213 76.9723 543.415 77.0521 542.299 77.0293C541.592 77.0293 541.034 76.904 540.624 76.6533C540.237 76.4027 539.895 76.0609 539.599 75.6279C539.302 75.1722 539.018 74.6595 538.744 74.0898C538.471 73.5202 538.118 72.9049 537.685 72.2441C537.434 71.9023 537.16 71.6061 536.864 71.3555C536.591 71.1048 536.352 70.82 536.146 70.501C535.873 70.068 535.588 69.5781 535.292 69.0312C534.996 68.4844 534.711 67.9261 534.438 67.3564C534.164 66.7868 533.891 66.2171 533.617 65.6475C533.367 65.0778 533.127 64.5537 532.899 64.0752C532.945 64.9411 532.979 65.8298 533.002 66.7412C533.025 67.6527 533.036 68.6097 533.036 69.6123V73.5088C533.036 74.3519 533.036 75.195 533.036 76.0381C533.059 76.8812 533.093 77.7015 533.139 78.499C533.161 78.9775 533.218 79.4674 533.31 79.9688C533.401 80.4701 533.492 80.9827 533.583 81.5068C533.697 82.0309 533.799 82.555 533.891 83.0791C533.982 83.6032 534.027 84.1045 534.027 84.583C534.027 85.0615 533.982 85.4147 533.891 85.6426C533.822 85.8704 533.708 86.0755 533.549 86.2578C533.389 86.4173 533.184 86.5882 532.934 86.7705C532.706 86.9528 532.421 87.2262 532.079 87.5908C531.737 87.9554 531.418 88.3428 531.122 88.7529C530.849 89.1631 530.541 89.5391 530.199 89.8809C529.857 90.2227 529.481 90.5075 529.071 90.7354C528.661 90.9632 528.171 91.0771 527.602 91.0771C526.872 91.0771 526.132 90.9746 525.38 90.7695C524.628 90.5645 523.933 90.2796 523.295 89.915C522.657 89.5277 522.133 89.0605 521.723 88.5137C521.335 87.9668 521.142 87.3516 521.142 86.668C521.142 85.8021 521.244 84.7425 521.449 83.4893C521.677 82.236 521.791 80.8916 521.791 79.4561C521.791 78.9092 521.825 78.4535 521.894 78.0889C521.962 77.7015 522.042 77.3483 522.133 77.0293C522.247 76.6875 522.361 76.3571 522.475 76.0381C522.589 75.6963 522.68 75.2975 522.748 74.8418C522.862 74.1582 522.942 73.4176 522.987 72.6201C523.056 71.8226 523.113 71.0023 523.158 70.1592C523.204 69.2933 523.238 68.416 523.261 67.5273C523.306 66.6387 523.352 65.7614 523.397 64.8955C523.42 64.4854 523.466 64.0866 523.534 63.6992C523.625 63.3118 523.705 62.9131 523.773 62.5029C523.865 62.0928 523.933 61.6712 523.979 61.2383C524.047 60.8053 524.081 60.3268 524.081 59.8027C524.081 59.3242 524.035 58.8799 523.944 58.4697C523.876 58.0596 523.796 57.638 523.705 57.2051C523.614 56.7721 523.523 56.3164 523.432 55.8379C523.363 55.3366 523.329 54.7669 523.329 54.1289C523.329 53.7188 523.386 53.2744 523.5 52.7959C523.637 52.2946 523.796 51.7819 523.979 51.2578C524.161 50.7109 524.354 50.1527 524.56 49.583C524.765 49.0133 524.958 48.4323 525.141 47.8398C525.232 47.5436 525.289 47.2474 525.312 46.9512C525.334 46.6549 525.346 46.3815 525.346 46.1309C525.346 45.8574 525.357 45.6296 525.38 45.4473C525.403 45.265 525.46 45.1283 525.551 45.0371C525.596 44.946 525.744 44.8434 525.995 44.7295C526.246 44.6156 526.508 44.5016 526.781 44.3877C527.077 44.251 527.351 44.1484 527.602 44.0801C527.875 43.9889 528.057 43.932 528.148 43.9092C528.467 43.9092 528.752 44.0117 529.003 44.2168C529.276 44.3991 529.641 44.5358 530.097 44.627C530.757 44.7637 531.407 44.8548 532.045 44.9004C532.706 44.946 533.31 45.0029 533.856 45.0713C534.426 45.1396 534.939 45.2422 535.395 45.3789C535.873 45.5156 536.26 45.7549 536.557 46.0967C536.876 46.4385 537.172 46.8828 537.445 47.4297C537.719 47.9538 537.981 48.512 538.231 49.1045C538.505 49.6969 538.767 50.3008 539.018 50.916C539.291 51.5312 539.564 52.0895 539.838 52.5908C540.089 53.0465 540.385 53.4681 540.727 53.8555C541.068 54.2201 541.33 54.596 541.513 54.9834C541.649 55.234 541.729 55.5303 541.752 55.8721C541.775 56.1911 541.866 56.4759 542.025 56.7266C542.094 56.8861 542.31 57.2848 542.675 57.9229C543.039 58.5609 543.438 59.2445 543.871 59.9736C544.327 60.68 544.737 61.318 545.102 61.8877C545.489 62.4574 545.74 62.7422 545.854 62.7422C546.127 62.7422 546.378 62.5485 546.605 62.1611C546.856 61.7738 547.095 61.2952 547.323 60.7256C547.551 60.1559 547.79 59.5521 548.041 58.9141C548.292 58.2533 548.565 57.6608 548.861 57.1367C549.226 56.5443 549.636 55.986 550.092 55.4619C550.548 54.915 550.935 54.3112 551.254 53.6504C551.459 53.2174 551.664 52.6592 551.869 51.9756C552.097 51.292 552.336 50.5742 552.587 49.8223C552.838 49.0475 553.111 48.2728 553.407 47.498C553.726 46.7233 554.079 46.0283 554.467 45.4131C554.854 44.7751 555.287 44.2624 555.766 43.875C556.244 43.4876 556.791 43.2939 557.406 43.2939C557.702 43.2939 557.953 43.3395 558.158 43.4307C558.363 43.499 558.568 43.6016 558.773 43.7383C559.001 43.875 559.252 44.0231 559.525 44.1826C559.799 44.3421 560.141 44.4902 560.551 44.627C560.938 44.7409 561.326 44.832 561.713 44.9004C562.123 44.9688 562.51 45.0371 562.875 45.1055C563.24 45.1738 563.57 45.265 563.866 45.3789C564.185 45.4701 564.459 45.6296 564.687 45.8574C564.914 46.1081 565.097 46.4271 565.233 46.8145C565.37 47.2018 565.473 47.6234 565.541 48.0791C565.632 48.5348 565.689 49.0247 565.712 49.5488C565.757 50.0729 565.792 50.597 565.814 51.1211C565.814 51.8958 565.792 52.6478 565.746 53.377C565.701 54.0833 565.678 54.7555 565.678 55.3936C565.678 55.9176 565.712 56.3734 565.78 56.7607C565.871 57.1481 565.963 57.5469 566.054 57.957C566.168 58.3444 566.27 58.7887 566.361 59.29C566.452 59.7913 566.498 60.4066 566.498 61.1357C566.498 61.8421 566.475 62.5827 566.43 63.3574C566.384 64.1094 566.361 64.8385 566.361 65.5449C566.361 66.4108 566.418 67.1058 566.532 67.6299C566.669 68.1312 566.828 68.5527 567.011 68.8945C567.193 69.2363 567.387 69.5553 567.592 69.8516C567.797 70.1478 567.979 70.5124 568.139 70.9453C568.207 71.1276 568.275 71.3896 568.344 71.7314C568.412 72.0732 568.48 72.4378 568.549 72.8252C568.617 73.1898 568.674 73.5544 568.72 73.9189C568.765 74.2835 568.799 74.5911 568.822 74.8418ZM609.325 83.0449C609.257 83.25 609.143 83.4323 608.983 83.5918C608.824 83.7513 608.721 83.945 608.676 84.1729C608.585 84.4691 608.528 84.7767 608.505 85.0957C608.482 85.3919 608.437 85.6882 608.368 85.9844C608.323 86.2806 608.243 86.5654 608.129 86.8389C608.015 87.1123 607.833 87.363 607.582 87.5908C607.309 87.8415 606.921 88.0465 606.42 88.2061C605.919 88.3656 605.372 88.5137 604.779 88.6504C604.21 88.7871 603.629 88.9238 603.036 89.0605C602.466 89.1973 601.965 89.3568 601.532 89.5391C601.19 89.6986 600.86 89.9264 600.541 90.2227C600.222 90.4961 599.892 90.7923 599.55 91.1113C599.208 91.4076 598.843 91.6924 598.456 91.9658C598.091 92.2393 597.67 92.4329 597.191 92.5469C596.85 92.6608 596.417 92.7406 595.893 92.7861C595.368 92.8545 594.879 92.9229 594.423 92.9912C593.967 93.0824 593.42 93.1735 592.782 93.2646C592.167 93.3786 591.495 93.4811 590.766 93.5723C590.059 93.6862 589.319 93.7773 588.544 93.8457C587.792 93.9141 587.063 93.9482 586.356 93.9482C585.627 93.9482 585.046 93.8913 584.613 93.7773C584.203 93.6862 583.85 93.5609 583.554 93.4014C583.257 93.2419 582.973 93.0596 582.699 92.8545C582.426 92.6722 582.084 92.5013 581.674 92.3418C581.036 92.1367 580.386 92 579.726 91.9316C579.065 91.8633 578.404 91.7607 577.743 91.624C577.082 91.4873 576.422 91.2708 575.761 90.9746C575.1 90.6784 574.451 90.1999 573.812 89.5391C573.744 89.4707 573.676 89.3568 573.607 89.1973C573.539 89.015 573.471 88.8213 573.402 88.6162C573.334 88.4111 573.266 88.2174 573.197 88.0352C573.129 87.8529 573.061 87.7048 572.992 87.5908C572.764 87.2718 572.502 87.0098 572.206 86.8047C571.933 86.5768 571.671 86.3604 571.42 86.1553C571.192 85.9274 570.998 85.6768 570.839 85.4033C570.679 85.1299 570.6 84.7881 570.6 84.3779C570.6 84.0817 570.702 83.7741 570.907 83.4551C571.112 83.1133 571.363 82.8057 571.659 82.5322C571.955 82.2588 572.274 82.0309 572.616 81.8486C572.958 81.6663 573.266 81.5752 573.539 81.5752H574.052C574.348 81.5752 574.587 81.4954 574.77 81.3359C574.975 81.1764 575.134 80.9827 575.248 80.7549C575.362 80.527 575.442 80.2764 575.487 80.0029C575.556 79.7295 575.59 79.4788 575.59 79.251C575.59 78.7725 575.544 78.2256 575.453 77.6104C575.385 76.9951 575.351 76.2887 575.351 75.4912C575.351 75.1038 575.362 74.7165 575.385 74.3291C575.43 73.9189 575.453 73.5316 575.453 73.167C575.453 72.5973 575.373 72.1188 575.214 71.7314C575.077 71.3441 574.986 70.9339 574.94 70.501C574.826 69.4528 574.735 68.3021 574.667 67.0488C574.621 65.7956 574.599 64.4967 574.599 63.1523C574.599 62.5371 574.621 61.8991 574.667 61.2383C574.713 60.5775 574.758 59.9281 574.804 59.29C574.849 58.652 574.895 58.0482 574.94 57.4785C574.986 56.8861 575.009 56.3734 575.009 55.9404C575.009 55.667 574.826 55.4505 574.462 55.291C574.12 55.1315 573.744 54.9264 573.334 54.6758C572.924 54.4251 572.536 54.0833 572.172 53.6504C571.83 53.1947 571.659 52.5339 571.659 51.668C571.659 50.7565 571.978 49.9134 572.616 49.1387C573.277 48.3639 574.075 47.6917 575.009 47.1221C575.943 46.5296 576.934 46.0739 577.982 45.7549C579.031 45.4131 579.953 45.2422 580.751 45.2422C582.118 45.2422 583.542 45.3561 585.023 45.584C586.505 45.8118 587.997 45.9258 589.501 45.9258C589.797 45.9258 590.139 45.8916 590.526 45.8232C590.914 45.7321 591.347 45.641 591.825 45.5498C592.326 45.4587 592.873 45.3789 593.466 45.3105C594.058 45.2194 594.719 45.1738 595.448 45.1738C595.904 45.1738 596.269 45.2308 596.542 45.3447C596.815 45.4587 597.066 45.6068 597.294 45.7891C597.545 45.9486 597.784 46.1423 598.012 46.3701C598.262 46.5752 598.581 46.7803 598.969 46.9854C599.219 47.1221 599.527 47.2246 599.892 47.293C600.256 47.3613 600.575 47.4753 600.849 47.6348C601.168 47.7715 601.452 47.931 601.703 48.1133C601.954 48.2728 602.182 48.3867 602.387 48.4551C603.161 48.7285 603.856 48.9108 604.472 49.002C605.11 49.0931 605.645 49.2412 606.078 49.4463C606.511 49.6286 606.841 49.9362 607.069 50.3691C607.297 50.7793 607.411 51.4287 607.411 52.3174C607.411 53.5706 607.263 54.5277 606.967 55.1885C606.693 55.8493 606.272 56.3392 605.702 56.6582C605.132 56.9544 604.426 57.1481 603.583 57.2393C602.74 57.3304 601.76 57.4329 600.644 57.5469C599.641 57.6608 598.65 57.752 597.67 57.8203C596.713 57.8887 595.676 57.9229 594.56 57.9229C593.215 57.9229 591.723 57.8431 590.082 57.6836C588.441 57.5013 586.801 57.4102 585.16 57.4102C584.727 57.4102 584.374 57.4215 584.101 57.4443C583.827 57.4671 583.611 57.5469 583.451 57.6836C583.314 57.8203 583.212 58.0368 583.144 58.333C583.098 58.6292 583.075 59.0508 583.075 59.5977C583.075 59.985 583.087 60.3838 583.109 60.7939C583.155 61.2041 583.201 61.5915 583.246 61.9561C583.292 62.3206 583.337 62.6283 583.383 62.8789C583.451 63.1296 583.508 63.2891 583.554 63.3574C583.759 63.5853 584.158 63.7676 584.75 63.9043C585.342 64.0182 585.992 64.1094 586.698 64.1777C587.405 64.2233 588.1 64.2575 588.783 64.2803C589.49 64.2803 590.059 64.2803 590.492 64.2803C591.016 64.2803 591.483 64.2233 591.894 64.1094C592.326 63.9954 592.725 63.8701 593.09 63.7334C593.477 63.5739 593.83 63.4372 594.149 63.3232C594.491 63.2093 594.833 63.1523 595.175 63.1523C595.539 63.1523 595.813 63.1865 595.995 63.2549C596.2 63.3232 596.36 63.4144 596.474 63.5283C596.588 63.6195 596.667 63.722 596.713 63.8359C596.781 63.9271 596.872 64.0068 596.986 64.0752C597.26 64.2575 597.476 64.417 597.636 64.5537C597.795 64.6904 597.921 64.8385 598.012 64.998C598.103 65.1576 598.16 65.3626 598.183 65.6133C598.228 65.8411 598.251 66.1488 598.251 66.5361C598.251 67.835 598.16 68.8376 597.978 69.5439C597.795 70.2503 597.419 70.7858 596.85 71.1504C596.303 71.4922 595.517 71.7201 594.491 71.834C593.489 71.9251 592.156 71.9935 590.492 72.0391C589.877 72.0618 589.376 72.096 588.988 72.1416C588.601 72.1644 588.305 72.2327 588.1 72.3467C587.895 72.4378 587.746 72.5745 587.655 72.7568C587.587 72.9391 587.553 73.1898 587.553 73.5088C587.553 74.5798 587.541 75.4798 587.519 76.209C587.519 76.9154 587.61 77.4964 587.792 77.9521C587.974 78.3851 588.305 78.7041 588.783 78.9092C589.262 79.0915 589.991 79.1826 590.971 79.1826C591.723 79.1826 592.497 79.1484 593.295 79.0801C594.092 79.0117 594.89 78.932 595.688 78.8408C596.485 78.7269 597.26 78.6016 598.012 78.4648C598.786 78.3281 599.516 78.1914 600.199 78.0547C600.769 77.9408 601.293 77.7926 601.771 77.6104C602.25 77.4281 602.706 77.2572 603.139 77.0977C603.594 76.9154 604.05 76.7673 604.506 76.6533C604.962 76.5166 605.44 76.4482 605.941 76.4482C607.172 76.4482 608.106 76.8014 608.744 77.5078C609.405 78.2142 609.735 79.2396 609.735 80.584C609.735 80.9714 609.701 81.3815 609.633 81.8145C609.564 82.2474 609.462 82.6576 609.325 83.0449ZM647.914 62.6738C647.8 62.9245 647.652 63.2093 647.47 63.5283C647.31 63.8245 647.128 64.1322 646.923 64.4512C646.741 64.7474 646.547 65.0322 646.342 65.3057C646.16 65.5563 645.989 65.75 645.829 65.8867C645.487 66.1602 645.032 66.388 644.462 66.5703C643.892 66.7526 643.334 66.9349 642.787 67.1172C642.24 67.2767 641.762 67.459 641.352 67.6641C640.964 67.8464 640.771 68.097 640.771 68.416C640.771 68.735 640.85 69.1338 641.01 69.6123C641.169 70.068 641.34 70.5352 641.522 71.0137C641.728 71.4694 641.921 71.891 642.104 72.2783C642.309 72.6429 642.445 72.8936 642.514 73.0303C642.81 73.6683 643.186 74.3747 643.642 75.1494C644.097 75.9242 644.451 76.6647 644.701 77.3711C644.906 77.9408 645.043 78.5674 645.111 79.251C645.202 79.9346 645.339 80.5954 645.521 81.2334C645.681 81.8942 645.875 82.5094 646.103 83.0791C646.33 83.6488 646.444 84.2184 646.444 84.7881C646.444 85.2894 646.285 85.8249 645.966 86.3945C645.647 86.9414 645.259 87.4769 644.804 88.001C644.348 88.5023 643.847 88.9694 643.3 89.4023C642.776 89.8125 642.309 90.1201 641.898 90.3252C641.671 90.4391 641.317 90.5872 640.839 90.7695C640.383 90.929 639.87 91.0999 639.301 91.2822C638.731 91.4645 638.127 91.624 637.489 91.7607C636.851 91.8747 636.247 91.9316 635.678 91.9316C634.698 91.9316 633.923 91.5329 633.354 90.7354C632.784 89.915 632.317 88.8783 631.952 87.625C631.61 86.3717 631.314 84.9818 631.063 83.4551C630.836 81.9284 630.551 80.4587 630.209 79.0459C630.027 78.3395 629.81 77.6104 629.56 76.8584C629.332 76.1064 629.058 75.252 628.739 74.2949C628.534 73.6569 628.363 73.0645 628.227 72.5176C628.113 71.9707 627.976 71.4922 627.816 71.082C627.657 70.6719 627.463 70.3529 627.235 70.125C627.007 69.8743 626.688 69.749 626.278 69.749C625.276 69.749 624.569 69.8174 624.159 69.9541C623.749 70.068 623.487 70.3187 623.373 70.7061C623.259 71.0706 623.214 71.5947 623.236 72.2783C623.259 72.9619 623.202 73.862 623.065 74.9785C622.929 76.0723 622.781 77.2572 622.621 78.5332C622.462 79.7865 622.382 81.0739 622.382 82.3955C622.382 83.1702 622.462 83.8994 622.621 84.583C622.781 85.2666 622.86 85.8704 622.86 86.3945C622.86 87.1465 622.712 87.7959 622.416 88.3428C622.143 88.8669 621.767 89.3112 621.288 89.6758C620.81 90.0176 620.263 90.2682 619.647 90.4277C619.032 90.5872 618.394 90.667 617.733 90.667C616.913 90.667 616.15 90.6442 615.443 90.5986C614.76 90.5531 614.167 90.4049 613.666 90.1543C613.165 89.8809 612.766 89.4821 612.47 88.958C612.196 88.4111 612.06 87.6478 612.06 86.668C612.06 85.3236 612.162 84.0589 612.367 82.874C612.595 81.6663 612.834 80.4928 613.085 79.3535C613.336 78.1914 613.563 77.0407 613.769 75.9014C613.996 74.762 614.11 73.5771 614.11 72.3467C614.11 71.6175 614.088 70.8656 614.042 70.0908C613.996 69.2933 613.974 68.4958 613.974 67.6982C613.974 66.9235 613.996 66.1715 614.042 65.4424C614.088 64.7132 614.145 63.9727 614.213 63.2207C614.281 62.446 614.338 61.6143 614.384 60.7256C614.429 59.8369 614.452 58.8229 614.452 57.6836C614.452 57.0684 614.441 56.5443 614.418 56.1113C614.395 55.6784 614.338 55.3138 614.247 55.0176C614.179 54.6986 614.053 54.4137 613.871 54.1631C613.689 53.9124 613.438 53.6504 613.119 53.377C612.982 53.2402 612.834 53.1377 612.675 53.0693C612.515 53.001 612.356 52.9098 612.196 52.7959C612.06 52.682 611.946 52.5111 611.854 52.2832C611.763 52.0553 611.718 51.7363 611.718 51.3262C611.718 50.9844 611.775 50.6312 611.889 50.2666C612.025 49.8792 612.219 49.5033 612.47 49.1387C612.72 48.7513 613.028 48.3981 613.393 48.0791C613.757 47.7373 614.179 47.4639 614.657 47.2588C615.09 47.0993 615.603 47.0309 616.195 47.0537C616.788 47.0537 617.346 46.9854 617.87 46.8486C618.44 46.7347 618.964 46.5866 619.442 46.4043C619.944 46.222 620.354 46.0853 620.673 45.9941C621.858 45.8574 623.077 45.7891 624.33 45.7891C624.786 45.7891 625.23 45.8005 625.663 45.8232C626.119 45.846 626.563 45.8574 626.996 45.8574C628.249 45.8574 629.48 45.8005 630.688 45.6865C631.895 45.5726 633.046 45.4473 634.14 45.3105C635.233 45.1738 636.27 45.0485 637.25 44.9346C638.23 44.8206 639.13 44.7637 639.95 44.7637C640.429 44.7637 640.816 44.7751 641.112 44.7979C641.431 44.8206 641.728 44.9004 642.001 45.0371C642.274 45.151 642.582 45.3561 642.924 45.6523C643.266 45.9258 643.721 46.3245 644.291 46.8486C644.656 47.1904 644.963 47.4753 645.214 47.7031C645.487 47.931 645.727 48.1702 645.932 48.4209C646.137 48.6488 646.319 48.9336 646.479 49.2754C646.661 49.5944 646.854 50.0273 647.06 50.5742C647.242 51.0299 647.322 51.5882 647.299 52.249C647.299 52.887 647.367 53.5365 647.504 54.1973C647.595 54.7897 647.698 55.3366 647.812 55.8379C647.948 56.3392 648.062 56.8177 648.153 57.2734C648.267 57.7064 648.358 58.1279 648.427 58.5381C648.495 58.9255 648.529 59.3242 648.529 59.7344C648.529 60.1901 648.484 60.6572 648.393 61.1357C648.324 61.5915 648.165 62.1042 647.914 62.6738ZM641.488 58.9482C641.465 58.8343 641.386 58.7318 641.249 58.6406C641.135 58.5267 640.987 58.4128 640.805 58.2988C640.645 58.1621 640.463 58.014 640.258 57.8545C640.053 57.6722 639.87 57.4557 639.711 57.2051C639.369 56.7038 639.164 56.248 639.096 55.8379C639.027 55.4277 638.891 55.1201 638.686 54.915C638.298 54.5277 637.729 54.2314 636.977 54.0264C636.225 53.8213 635.484 53.7188 634.755 53.7188C634.322 53.7188 633.809 53.7415 633.217 53.7871C632.647 53.8099 632.032 53.8555 631.371 53.9238C630.71 53.9694 630.027 54.0378 629.32 54.1289C628.614 54.2201 627.908 54.3112 627.201 54.4023C626.859 54.4479 626.381 54.5163 625.766 54.6074C625.173 54.6986 624.581 54.8125 623.988 54.9492C623.419 55.0859 622.917 55.2568 622.484 55.4619C622.074 55.6442 621.869 55.8493 621.869 56.0771C621.869 56.4417 621.915 56.8405 622.006 57.2734C622.097 57.7064 622.165 58.0596 622.211 58.333C622.302 59.1305 622.348 59.8939 622.348 60.623C622.37 61.3294 622.473 61.9447 622.655 62.4688C623.065 62.3548 623.464 62.2865 623.852 62.2637C624.239 62.2181 624.604 62.1953 624.945 62.1953C625.401 62.1953 625.857 62.2067 626.312 62.2295C626.768 62.2523 627.27 62.2637 627.816 62.2637C628.386 62.2637 629.024 62.2295 629.73 62.1611C630.437 62.0928 631.155 62.0244 631.884 61.9561C632.636 61.8649 633.388 61.7852 634.14 61.7168C634.892 61.6257 635.609 61.5687 636.293 61.5459C636.612 61.5459 636.92 61.5573 637.216 61.5801C637.535 61.6029 637.831 61.6143 638.104 61.6143C638.446 61.6143 638.811 61.5573 639.198 61.4434C639.586 61.3294 639.95 61.1699 640.292 60.9648C640.634 60.7598 640.919 60.4977 641.146 60.1787C641.374 59.8597 641.488 59.4951 641.488 59.085V58.9482ZM687.357 76.6533C687.312 77.2913 687.198 77.8952 687.016 78.4648C686.833 79.0345 686.742 79.6042 686.742 80.1738C686.742 80.4473 686.765 80.8005 686.811 81.2334C686.856 81.6663 686.879 82.1335 686.879 82.6348C686.879 83.5007 686.674 84.2754 686.264 84.959C685.854 85.6426 685.329 86.2806 684.691 86.873C684.053 87.4655 683.336 88.0465 682.538 88.6162C681.763 89.1631 680.989 89.7327 680.214 90.3252C679.667 90.7581 679.211 91.1911 678.847 91.624C678.482 92.057 678.061 92.4443 677.582 92.7861C677.104 93.1279 676.5 93.4014 675.771 93.6064C675.041 93.8343 674.027 93.9482 672.729 93.9482C672.022 93.9482 671.293 93.8913 670.541 93.7773C669.812 93.6862 669.083 93.5723 668.354 93.4355C667.624 93.2988 666.918 93.1735 666.234 93.0596C665.574 92.9684 664.958 92.9229 664.389 92.9229C663.91 92.9229 663.454 92.9684 663.021 93.0596C662.589 93.1507 662.156 93.1963 661.723 93.1963C661.54 93.1963 661.221 93.1165 660.766 92.957C660.31 92.8203 659.82 92.6152 659.296 92.3418C658.772 92.0911 658.248 91.7835 657.724 91.4189C657.2 91.0316 656.767 90.5986 656.425 90.1201C656.106 89.6872 655.901 89.2314 655.81 88.7529C655.741 88.2516 655.593 87.7731 655.365 87.3174C655.046 86.7477 654.625 86.2008 654.101 85.6768C653.599 85.1527 653.155 84.526 652.768 83.7969C652.426 83.1361 652.13 82.3385 651.879 81.4043C651.628 80.4701 651.343 79.5472 651.024 78.6357C650.614 77.4281 650.204 76.3457 649.794 75.3887C649.407 74.4316 649.213 73.6227 649.213 72.9619C649.213 72.21 649.315 71.4124 649.521 70.5693C649.726 69.7035 649.999 68.9059 650.341 68.1768C650.683 67.4248 651.07 66.8096 651.503 66.3311C651.959 65.8525 652.426 65.6133 652.904 65.6133C653.155 65.6133 653.417 65.6589 653.69 65.75C653.964 65.8411 654.249 65.8867 654.545 65.8867C654.932 65.8411 655.251 65.7272 655.502 65.5449C655.775 65.3626 656.06 65.2715 656.356 65.2715C656.653 65.2715 657.074 65.3285 657.621 65.4424C658.168 65.5335 658.726 65.6589 659.296 65.8184C659.888 65.9779 660.435 66.1374 660.937 66.2969C661.461 66.4564 661.848 66.6045 662.099 66.7412C662.463 66.9235 662.851 67.2425 663.261 67.6982C663.671 68.154 664.047 68.6553 664.389 69.2021C664.73 69.749 665.015 70.3187 665.243 70.9111C665.471 71.5036 665.585 72.0277 665.585 72.4834C665.585 72.734 665.574 72.9961 665.551 73.2695C665.528 73.5202 665.517 73.7708 665.517 74.0215C665.517 74.4772 665.596 74.9443 665.756 75.4229C665.915 75.8786 666.052 76.3913 666.166 76.9609C666.257 77.599 666.314 78.2028 666.337 78.7725C666.382 79.3421 666.439 79.8776 666.508 80.3789C666.576 80.8574 666.667 81.3132 666.781 81.7461C666.918 82.179 667.146 82.5892 667.465 82.9766C667.921 83.569 668.559 84.0475 669.379 84.4121C670.199 84.7539 671.008 84.9248 671.806 84.9248C672.307 84.9248 672.706 84.8451 673.002 84.6855C673.321 84.526 673.594 84.3324 673.822 84.1045C674.05 83.8766 674.267 83.6488 674.472 83.4209C674.7 83.1702 674.962 82.9538 675.258 82.7715C675.714 82.498 676.146 82.293 676.557 82.1562C676.967 81.9967 677.331 81.8031 677.65 81.5752C677.969 81.3245 678.22 80.9941 678.402 80.584C678.585 80.1738 678.676 79.57 678.676 78.7725C678.676 78.1344 678.55 77.4622 678.3 76.7559C678.072 76.0267 677.924 75.2975 677.855 74.5684C677.787 73.9303 677.742 73.3949 677.719 72.9619C677.696 72.5062 677.65 72.0846 677.582 71.6973C677.536 71.2871 677.445 70.8883 677.309 70.501C677.172 70.0908 676.933 69.6237 676.591 69.0996C676.5 69.0085 676.295 68.7806 675.976 68.416C675.657 68.0286 675.281 67.6299 674.848 67.2197C674.438 66.8096 673.993 66.445 673.515 66.126C673.036 65.7842 672.592 65.6133 672.182 65.6133C671.999 65.6133 671.817 65.6247 671.635 65.6475C671.475 65.6702 671.304 65.6816 671.122 65.6816C670.393 65.6816 669.641 65.5221 668.866 65.2031C668.114 64.8841 667.34 64.4967 666.542 64.041C665.744 63.5625 664.936 63.0612 664.115 62.5371C663.295 62.013 662.475 61.5459 661.654 61.1357C660.971 60.7939 660.196 60.4749 659.33 60.1787C658.487 59.8825 657.689 59.5521 656.938 59.1875C656.186 58.8229 655.559 58.4014 655.058 57.9229C654.556 57.4215 654.306 56.8063 654.306 56.0771C654.306 55.9404 654.328 55.667 654.374 55.2568C654.442 54.8467 654.522 54.3796 654.613 53.8555C654.704 53.3086 654.818 52.7275 654.955 52.1123C655.092 51.4743 655.251 50.8704 655.434 50.3008C655.616 49.7083 655.798 49.1729 655.98 48.6943C656.186 48.2158 656.402 47.8398 656.63 47.5664C656.949 47.179 657.348 46.8031 657.826 46.4385C658.327 46.0739 658.817 45.7549 659.296 45.4814C659.774 45.1852 660.196 44.9574 660.561 44.7979C660.948 44.6156 661.199 44.5244 661.312 44.5244C661.518 44.5244 661.711 44.5472 661.894 44.5928C662.099 44.6156 662.304 44.627 662.509 44.627C662.942 44.627 663.306 44.5814 663.603 44.4902C663.922 44.3763 664.195 44.2396 664.423 44.0801C664.674 43.9206 664.913 43.7725 665.141 43.6357C665.368 43.4762 665.631 43.3395 665.927 43.2256C666.314 43.0661 666.781 42.9863 667.328 42.9863C667.898 42.9635 668.456 42.8952 669.003 42.7812C669.641 42.6445 670.438 42.485 671.396 42.3027C672.375 42.0977 673.355 41.9154 674.335 41.7559C675.338 41.5736 676.272 41.4255 677.138 41.3115C678.004 41.1976 678.653 41.152 679.086 41.1748C679.314 41.1748 679.553 41.2318 679.804 41.3457C680.077 41.4596 680.282 41.7103 680.419 42.0977C680.715 42.3027 681.057 42.4508 681.444 42.542C681.832 42.6331 682.151 42.7812 682.401 42.9863C682.743 43.2826 683.096 43.6699 683.461 44.1484C683.848 44.627 684.213 45.0371 684.555 45.3789C684.896 45.7207 685.193 46.0283 685.443 46.3018C685.717 46.5524 685.933 46.8031 686.093 47.0537C686.275 47.2816 686.4 47.5322 686.469 47.8057C686.56 48.0563 686.605 48.3639 686.605 48.7285C686.605 49.4577 686.526 50.1641 686.366 50.8477C686.207 51.5312 685.933 52.1465 685.546 52.6934C685.181 53.2174 684.68 53.6504 684.042 53.9922C683.427 54.3112 682.641 54.4707 681.684 54.4707C681.114 54.4707 680.499 54.4137 679.838 54.2998C679.177 54.1631 678.585 53.9922 678.061 53.7871C677.787 53.696 677.514 53.5479 677.24 53.3428C676.967 53.1377 676.693 52.9326 676.42 52.7275C676.146 52.4997 675.862 52.2832 675.565 52.0781C675.269 51.873 674.95 51.7135 674.608 51.5996C674.267 51.4857 673.822 51.3831 673.275 51.292C672.729 51.1781 672.159 51.0869 671.566 51.0186C670.997 50.9502 670.438 50.8932 669.892 50.8477C669.345 50.8021 668.889 50.7793 668.524 50.7793C668.046 50.7793 667.579 50.8135 667.123 50.8818C666.667 50.9274 666.257 51.0413 665.893 51.2236C665.551 51.3831 665.266 51.611 665.038 51.9072C664.81 52.2035 664.696 52.5908 664.696 53.0693C664.696 53.3428 664.742 53.582 664.833 53.7871C664.947 53.9922 665.095 54.1859 665.277 54.3682C665.482 54.5277 665.733 54.6986 666.029 54.8809C666.326 55.0632 666.667 55.2796 667.055 55.5303C667.396 55.7581 667.727 56.0088 668.046 56.2822C668.388 56.5557 668.718 56.8177 669.037 57.0684C669.379 57.319 669.721 57.5583 670.062 57.7861C670.404 58.014 670.757 58.1963 671.122 58.333C671.555 58.4697 671.999 58.5609 672.455 58.6064C672.934 58.6292 673.355 58.6748 673.72 58.7432C675.064 59.0622 676.317 59.5293 677.479 60.1445C678.664 60.737 679.758 61.432 680.761 62.2295C681.763 63.027 682.663 63.8929 683.461 64.8271C684.281 65.7386 684.999 66.6729 685.614 67.6299C685.91 68.1084 686.15 68.5413 686.332 68.9287C686.514 69.2933 686.651 69.6693 686.742 70.0566C686.833 70.4212 686.89 70.82 686.913 71.2529C686.936 71.6859 686.947 72.21 686.947 72.8252C686.947 73.5316 687.016 74.2152 687.152 74.876C687.289 75.5368 687.357 76.1292 687.357 76.6533ZM702.089 84.1045C702.134 84.4463 702.18 84.9932 702.226 85.7451C702.271 86.4743 702.294 87.2035 702.294 87.9326C702.294 88.8441 702.191 89.5732 701.986 90.1201C701.804 90.6442 701.485 91.0544 701.029 91.3506C700.574 91.624 699.947 91.8063 699.149 91.8975C698.375 91.9658 697.395 92 696.21 92C695.891 92 695.595 92 695.321 92C695.048 91.9772 694.786 91.9316 694.535 91.8633C694.079 91.7949 693.59 91.6126 693.065 91.3164C692.564 91.0202 692.086 90.6898 691.63 90.3252C691.197 89.9378 690.832 89.5505 690.536 89.1631C690.263 88.7757 690.126 88.4567 690.126 88.2061C690.126 87.9326 690.149 87.625 690.194 87.2832C690.24 86.9414 690.285 86.611 690.331 86.292C690.399 85.973 690.456 85.6768 690.502 85.4033C690.548 85.1299 690.582 84.9248 690.604 84.7881C690.627 84.5146 690.661 84.2184 690.707 83.8994C690.753 83.5576 690.798 83.2386 690.844 82.9424C690.889 82.6234 690.946 82.3385 691.015 82.0879C691.083 81.8145 691.163 81.6208 691.254 81.5068C691.391 81.3701 691.789 81.222 692.45 81.0625C693.111 80.903 693.852 80.7663 694.672 80.6523C695.515 80.5384 696.347 80.4473 697.167 80.3789C697.987 80.2878 698.625 80.2422 699.081 80.2422H700.141C700.551 80.2422 700.858 80.2764 701.063 80.3447C701.291 80.4131 701.451 80.5726 701.542 80.8232C701.656 81.0739 701.747 81.4613 701.815 81.9854C701.884 82.5094 701.975 83.2158 702.089 84.1045ZM742.045 56.7266V56.9316C742.045 57.2734 741.999 57.8203 741.908 58.5723C741.817 59.3014 741.669 60.0876 741.464 60.9307C741.259 61.751 741.008 62.5485 740.712 63.3232C740.416 64.098 740.062 64.7018 739.652 65.1348C739.265 65.5221 738.741 65.7842 738.08 65.9209C737.442 66.0576 736.827 66.2285 736.234 66.4336C735.756 66.6159 735.243 66.8551 734.696 67.1514C734.172 67.4476 733.637 67.7324 733.09 68.0059C732.566 68.2793 732.03 68.5186 731.483 68.7236C730.959 68.9287 730.447 69.0312 729.945 69.0312C729.604 69.0312 729.216 68.9515 728.783 68.792C728.373 68.6097 727.986 68.3249 727.621 67.9375C727.257 67.5501 726.949 67.0488 726.698 66.4336C726.47 65.8184 726.356 65.055 726.356 64.1436C726.356 63.5739 726.379 62.9814 726.425 62.3662C726.47 61.751 726.493 61.1471 726.493 60.5547C726.493 59.9167 726.436 59.1989 726.322 58.4014C726.231 57.5811 726.094 56.8177 725.912 56.1113C725.73 55.4049 725.525 54.8125 725.297 54.334C725.069 53.8327 724.818 53.582 724.545 53.582C724.34 53.582 724.101 53.6276 723.827 53.7188C723.576 53.8099 723.28 53.8555 722.938 53.8555C722.528 53.8555 722.209 53.8099 721.981 53.7188C721.776 53.6276 721.605 53.5365 721.469 53.4453C721.332 53.3314 721.207 53.2288 721.093 53.1377C720.979 53.0465 720.819 53.001 720.614 53.001C720.067 53.001 719.646 53.1263 719.35 53.377C719.076 53.6048 718.871 53.9238 718.734 54.334C718.598 54.7441 718.484 55.2113 718.393 55.7354C718.324 56.2594 718.21 56.7949 718.051 57.3418C717.937 57.7292 717.732 58.1621 717.436 58.6406C717.139 59.1191 716.923 59.6204 716.786 60.1445C716.604 60.6686 716.456 61.2497 716.342 61.8877C716.228 62.5029 716.068 63.141 715.863 63.8018C715.681 64.3714 715.465 65.0892 715.214 65.9551C714.986 66.821 714.758 67.7324 714.53 68.6895C714.302 69.6465 714.109 70.6035 713.949 71.5605C713.79 72.5176 713.71 73.3607 713.71 74.0898C713.71 75.138 714.052 76.1634 714.735 77.166C715.419 78.1458 716.308 78.9661 717.401 79.627C717.72 79.8092 718.165 79.9688 718.734 80.1055C719.327 80.2194 719.885 80.4017 720.409 80.6523C720.91 80.903 721.343 81.1536 721.708 81.4043C722.073 81.6322 722.46 81.8486 722.87 82.0537C723.28 82.236 723.759 82.3955 724.306 82.5322C724.875 82.6462 725.604 82.7031 726.493 82.7031C727.313 82.7031 728.145 82.6234 728.988 82.4639C729.854 82.2816 730.674 82.0537 731.449 81.7803C732.224 81.5068 732.93 81.1992 733.568 80.8574C734.206 80.5156 734.719 80.1738 735.106 79.832C735.243 79.7181 735.46 79.4788 735.756 79.1143C736.075 78.7269 736.439 78.3281 736.85 77.918C737.26 77.5078 737.715 77.1432 738.217 76.8242C738.718 76.4824 739.254 76.3115 739.823 76.3115C739.937 76.3115 740.108 76.3457 740.336 76.4141C740.587 76.4596 740.826 76.5736 741.054 76.7559C741.304 76.9154 741.521 77.1546 741.703 77.4736C741.885 77.7926 741.977 78.2028 741.977 78.7041C741.977 79.3649 741.885 80.0485 741.703 80.7549C741.521 81.4613 741.43 82.1335 741.43 82.7715C741.43 83.0449 741.441 83.3867 741.464 83.7969C741.487 84.207 741.498 84.6058 741.498 84.9932C741.498 85.7907 741.247 86.5996 740.746 87.4199C740.268 88.2402 739.413 89.0947 738.183 89.9834C737.795 90.2568 737.317 90.5075 736.747 90.7354C736.177 90.9404 735.631 91.2025 735.106 91.5215C734.56 91.8633 733.979 92.2051 733.363 92.5469C732.748 92.8887 732.258 93.0596 731.894 93.0596C731.552 93.0596 731.199 93.014 730.834 92.9229C730.469 92.8317 730.059 92.7861 729.604 92.7861C728.874 92.7861 728.157 92.8089 727.45 92.8545C726.767 92.9001 726.06 92.9229 725.331 92.9229C724.966 92.9229 724.556 92.9115 724.101 92.8887C723.668 92.8887 723.223 92.8659 722.768 92.8203C722.312 92.7975 721.856 92.7633 721.4 92.7178C720.967 92.6722 720.569 92.6152 720.204 92.5469C719.931 92.5241 719.612 92.4899 719.247 92.4443C718.905 92.4215 718.563 92.3874 718.222 92.3418C717.88 92.319 717.572 92.2848 717.299 92.2393C717.048 92.2165 716.877 92.1823 716.786 92.1367C716.627 92.0684 716.479 91.943 716.342 91.7607C716.205 91.5785 716.057 91.3734 715.897 91.1455C715.761 90.8949 715.601 90.6556 715.419 90.4277C715.259 90.1771 715.054 89.9492 714.804 89.7441C714.53 89.5391 714.223 89.4023 713.881 89.334C713.539 89.2428 713.266 89.1061 713.061 88.9238C712.787 88.5592 712.468 88.1605 712.104 87.7275C711.762 87.2946 711.431 86.8958 711.112 86.5312C710.748 85.9616 710.463 85.3691 710.258 84.7539C710.053 84.1387 709.779 83.6374 709.438 83.25C709.301 83.1133 709.107 82.988 708.856 82.874C708.629 82.7373 708.378 82.6006 708.104 82.4639C707.831 82.3044 707.558 82.1449 707.284 81.9854C707.034 81.8031 706.817 81.598 706.635 81.3701C706.544 81.3018 706.407 81.1195 706.225 80.8232C706.065 80.527 705.894 80.2194 705.712 79.9004C705.552 79.5814 705.404 79.3079 705.268 79.0801C705.154 78.8294 705.097 78.7269 705.097 78.7725C705.097 78.6357 705.142 78.4648 705.233 78.2598C705.347 78.0319 705.473 77.804 705.609 77.5762C705.746 77.3483 705.86 77.1204 705.951 76.8926C706.065 76.6647 706.122 76.471 706.122 76.3115C706.122 75.9242 706.065 75.5824 705.951 75.2861C705.837 74.9671 705.757 74.6139 705.712 74.2266C705.712 73.4518 705.746 72.4492 705.814 71.2188C705.883 69.9655 705.985 68.6325 706.122 67.2197C706.282 65.807 706.464 64.3942 706.669 62.9814C706.897 61.5459 707.159 60.2471 707.455 59.085C707.706 58.1735 707.991 57.2393 708.31 56.2822C708.629 55.3252 708.788 54.4251 708.788 53.582C708.788 53.2858 708.765 52.9896 708.72 52.6934C708.674 52.3971 708.651 52.1009 708.651 51.8047C708.651 51.1895 708.834 50.7109 709.198 50.3691C709.563 50.0273 710.007 49.7311 710.531 49.4805C711.055 49.207 711.614 48.945 712.206 48.6943C712.799 48.4437 713.323 48.0905 713.778 47.6348C713.892 47.498 713.983 47.3044 714.052 47.0537C714.12 46.8031 714.177 46.5524 714.223 46.3018C714.268 46.0511 714.314 45.8118 714.359 45.584C714.405 45.3333 714.485 45.151 714.599 45.0371C714.667 44.946 714.758 44.889 714.872 44.8662C715.009 44.8434 715.157 44.8206 715.316 44.7979C715.499 44.7751 715.692 44.7409 715.897 44.6953C716.125 44.627 716.353 44.5244 716.581 44.3877C716.809 44.251 716.98 44.1143 717.094 43.9775C717.23 43.818 717.356 43.6813 717.47 43.5674C717.584 43.4535 717.72 43.3623 717.88 43.2939C718.039 43.2256 718.256 43.2028 718.529 43.2256C718.78 43.2256 719.031 43.237 719.281 43.2598C719.555 43.2826 719.794 43.2939 719.999 43.2939C720.341 43.2939 720.694 43.2826 721.059 43.2598C721.446 43.237 721.833 43.2256 722.221 43.2256C722.859 43.2256 723.383 43.2939 723.793 43.4307C724.203 43.5674 724.568 43.7269 724.887 43.9092C725.206 44.0687 725.513 44.2396 725.81 44.4219C726.106 44.6042 726.482 44.7409 726.938 44.832C727.553 44.946 728.168 45.0143 728.783 45.0371C729.421 45.0371 730.036 45.0485 730.629 45.0713C731.221 45.0713 731.802 45.1169 732.372 45.208C732.965 45.2764 733.534 45.4245 734.081 45.6523C734.4 45.7891 734.73 46.0397 735.072 46.4043C735.437 46.7461 735.824 47.0765 736.234 47.3955C736.622 47.6917 737.032 47.9538 737.465 48.1816C737.921 48.3867 738.24 48.6146 738.422 48.8652C738.559 49.1159 738.673 49.4919 738.764 49.9932C738.878 50.4945 739.037 50.916 739.242 51.2578C739.447 51.6224 739.698 52.0098 739.994 52.4199C740.313 52.8073 740.621 53.2288 740.917 53.6846C741.213 54.1175 741.464 54.596 741.669 55.1201C741.874 55.6214 741.999 56.1569 742.045 56.7266ZM778.959 83.0449C778.913 83.2272 778.811 83.4323 778.651 83.6602C778.515 83.888 778.332 84.1501 778.104 84.4463C777.899 84.7425 777.672 85.0615 777.421 85.4033C777.193 85.7451 776.988 86.1211 776.806 86.5312C776.509 87.1237 776.259 87.6364 776.054 88.0693C775.849 88.5023 775.644 88.901 775.438 89.2656C775.256 89.6302 775.04 89.972 774.789 90.291C774.538 90.61 774.208 90.9518 773.798 91.3164C773.41 91.681 773.069 91.9316 772.772 92.0684C772.499 92.2051 772.191 92.2962 771.85 92.3418C771.508 92.4102 771.098 92.4557 770.619 92.4785C770.163 92.5241 769.56 92.6266 768.808 92.7861C768.215 92.9229 767.68 93.0938 767.201 93.2988C766.723 93.5039 766.301 93.6292 765.937 93.6748C765.412 93.6748 764.843 93.5837 764.228 93.4014C763.635 93.2191 762.951 93.1279 762.177 93.1279C761.721 93.1279 761.254 93.1393 760.775 93.1621C760.297 93.1849 759.807 93.1963 759.306 93.1963C758.576 93.1963 757.847 93.1735 757.118 93.1279C756.412 93.0824 755.694 92.9684 754.965 92.7861C754.122 92.6038 753.415 92.3532 752.846 92.0342C752.276 91.7152 751.672 91.3962 751.034 91.0771C750.784 90.986 750.51 90.8949 750.214 90.8037C749.918 90.7126 749.621 90.6328 749.325 90.5645C749.029 90.4733 748.756 90.3822 748.505 90.291C748.277 90.1999 748.118 90.0973 748.026 89.9834C747.844 89.7783 747.707 89.4137 747.616 88.8896C747.525 88.3656 747.423 87.7731 747.309 87.1123C747.217 86.4515 747.104 85.7679 746.967 85.0615C746.853 84.3324 746.693 83.6602 746.488 83.0449C746.352 82.6348 746.203 82.293 746.044 82.0195C745.907 81.7233 745.771 81.4271 745.634 81.1309C745.52 80.8346 745.417 80.5042 745.326 80.1396C745.258 79.7751 745.224 79.3193 745.224 78.7725C745.224 77.6104 745.303 76.4482 745.463 75.2861C745.645 74.1012 745.736 73.0417 745.736 72.1074C745.736 71.5833 745.702 71.0592 745.634 70.5352C745.588 69.9883 745.565 69.4642 745.565 68.9629C745.565 68.0514 745.725 67.083 746.044 66.0576C746.386 65.0094 746.693 63.9043 746.967 62.7422C747.286 61.3294 747.548 60.0306 747.753 58.8457C747.958 57.638 748.186 56.4189 748.437 55.1885C748.596 54.4821 748.881 53.8327 749.291 53.2402C749.701 52.625 750.202 52.1009 750.795 51.668C751.387 51.2122 752.071 50.8477 752.846 50.5742C753.62 50.278 754.464 50.0843 755.375 49.9932C755.421 49.9932 755.455 49.959 755.478 49.8906C755.523 49.8223 755.603 49.7881 755.717 49.7881C757.266 49.7881 758.77 49.7995 760.229 49.8223C761.71 49.8451 763.088 50.0046 764.364 50.3008C765.64 50.5742 766.802 51.0527 767.851 51.7363C768.899 52.4199 769.787 53.4225 770.517 54.7441C770.699 55.0404 770.813 55.3708 770.858 55.7354C770.904 56.0771 771.018 56.4076 771.2 56.7266C771.474 57.2962 771.827 57.7975 772.26 58.2305C772.693 58.6406 773.035 59.0736 773.285 59.5293C773.536 60.0534 773.741 60.6117 773.9 61.2041C774.06 61.7965 774.299 62.3776 774.618 62.9473C774.983 63.6081 775.37 64.2461 775.78 64.8613C776.19 65.4766 776.566 66.0804 776.908 66.6729C777.273 67.2425 777.569 67.8008 777.797 68.3477C778.025 68.8945 778.139 69.43 778.139 69.9541C778.139 70.2731 778.127 70.5921 778.104 70.9111C778.082 71.2301 778.07 71.5605 778.07 71.9023C778.07 72.3353 778.139 72.7568 778.275 73.167C778.412 73.5771 778.503 73.9987 778.549 74.4316C778.549 75.0924 778.492 75.776 778.378 76.4824C778.264 77.1888 778.207 77.9066 778.207 78.6357C778.207 78.9092 778.241 79.2282 778.31 79.5928C778.401 79.9346 778.492 80.2992 778.583 80.6865C778.674 81.0511 778.754 81.4157 778.822 81.7803C778.913 82.1449 778.959 82.4753 778.959 82.7715V83.0449ZM766.859 76.3799C766.859 75.8558 766.78 75.4342 766.62 75.1152C766.461 74.7734 766.312 74.3405 766.176 73.8164C766.085 73.3835 766.016 72.9505 765.971 72.5176C765.948 72.0618 765.868 71.6061 765.731 71.1504C765.595 70.6947 765.424 70.2275 765.219 69.749C765.014 69.2705 764.888 68.8034 764.843 68.3477C764.843 68.1198 764.854 67.9033 764.877 67.6982C764.9 67.4932 764.911 67.2653 764.911 67.0146C764.911 66.0804 764.763 65.1234 764.467 64.1436C764.193 63.1637 763.829 62.2751 763.373 61.4775C762.917 60.6572 762.393 59.985 761.801 59.4609C761.231 58.9368 760.65 58.6748 760.058 58.6748C759.853 58.6748 759.613 58.6862 759.34 58.709C759.089 58.7318 758.839 58.7546 758.588 58.7773C758.36 58.8001 758.166 58.8229 758.007 58.8457C757.847 58.8457 757.768 58.8343 757.768 58.8115C757.585 58.9482 757.471 59.1419 757.426 59.3926C757.38 59.6204 757.357 59.8939 757.357 60.2129C757.357 60.4635 757.369 60.7484 757.392 61.0674C757.414 61.3636 757.426 61.6826 757.426 62.0244C757.426 62.5485 757.335 63.2663 757.152 64.1777C756.993 65.0892 756.845 66.0576 756.708 67.083C756.64 67.4932 756.583 67.9147 756.537 68.3477C756.514 68.7578 756.48 69.168 756.435 69.5781C756.412 69.9883 756.378 70.3757 756.332 70.7402C756.309 71.082 756.275 71.3783 756.229 71.6289C756.207 71.7428 756.127 71.891 755.99 72.0732C755.876 72.2555 755.74 72.4606 755.58 72.6885C755.443 72.8936 755.307 73.0986 755.17 73.3037C755.056 73.5088 754.988 73.6797 754.965 73.8164C754.828 74.3633 754.76 74.9215 754.76 75.4912C754.76 76.79 754.885 77.8382 755.136 78.6357C755.386 79.4333 755.797 80.0599 756.366 80.5156C756.936 80.9486 757.676 81.2448 758.588 81.4043C759.499 81.5638 760.627 81.6436 761.972 81.6436C762.427 81.6436 762.838 81.6322 763.202 81.6094C763.567 81.5638 763.852 81.484 764.057 81.3701C764.262 81.2562 764.512 80.9827 764.809 80.5498C765.128 80.0941 765.435 79.6042 765.731 79.0801C766.028 78.5332 766.278 78.0091 766.483 77.5078C766.711 76.9837 766.837 76.6077 766.859 76.3799ZM829.887 74.8418C829.887 76.1178 829.796 77.4622 829.613 78.875C829.431 80.2878 829.169 81.6208 828.827 82.874C828.508 84.1273 828.098 85.221 827.597 86.1553C827.118 87.0667 826.571 87.682 825.956 88.001C825.705 88.1377 825.341 88.2858 824.862 88.4453C824.407 88.582 823.882 88.7074 823.29 88.8213C822.72 88.9352 822.128 89.0264 821.513 89.0947C820.897 89.1631 820.305 89.1973 819.735 89.1973C819.371 89.1973 818.926 89.1289 818.402 88.9922C817.878 88.8555 817.377 88.6504 816.898 88.377C816.42 88.0807 816.01 87.7275 815.668 87.3174C815.349 86.8844 815.189 86.3945 815.189 85.8477C815.189 85.3919 815.178 84.9248 815.155 84.4463C815.132 83.9678 815.121 83.5007 815.121 83.0449C815.121 81.5638 815.144 80.0371 815.189 78.4648C815.235 76.8698 815.258 75.2406 815.258 73.5771C815.258 72.0277 815.212 70.4668 815.121 68.8945C815.053 67.3223 814.916 65.7158 814.711 64.0752C814.187 64.417 813.708 64.8613 813.275 65.4082C812.865 65.9551 812.466 66.5475 812.079 67.1855C811.715 67.8008 811.361 68.4388 811.02 69.0996C810.678 69.7604 810.313 70.3757 809.926 70.9453C809.584 71.4694 809.174 71.9137 808.695 72.2783C808.217 72.6429 807.841 73.0531 807.567 73.5088C807.294 73.9645 807.134 74.4089 807.089 74.8418C807.043 75.2747 806.929 75.6621 806.747 76.0039C806.565 76.3229 806.234 76.585 805.756 76.79C805.277 76.9723 804.48 77.0521 803.363 77.0293C802.657 77.0293 802.099 76.904 801.688 76.6533C801.301 76.4027 800.959 76.0609 800.663 75.6279C800.367 75.1722 800.082 74.6595 799.809 74.0898C799.535 73.5202 799.182 72.9049 798.749 72.2441C798.498 71.9023 798.225 71.6061 797.929 71.3555C797.655 71.1048 797.416 70.82 797.211 70.501C796.938 70.068 796.653 69.5781 796.356 69.0312C796.06 68.4844 795.775 67.9261 795.502 67.3564C795.229 66.7868 794.955 66.2171 794.682 65.6475C794.431 65.0778 794.192 64.5537 793.964 64.0752C794.009 64.9411 794.044 65.8298 794.066 66.7412C794.089 67.6527 794.101 68.6097 794.101 69.6123V73.5088C794.101 74.3519 794.101 75.195 794.101 76.0381C794.123 76.8812 794.158 77.7015 794.203 78.499C794.226 78.9775 794.283 79.4674 794.374 79.9688C794.465 80.4701 794.556 80.9827 794.647 81.5068C794.761 82.0309 794.864 82.555 794.955 83.0791C795.046 83.6032 795.092 84.1045 795.092 84.583C795.092 85.0615 795.046 85.4147 794.955 85.6426C794.887 85.8704 794.773 86.0755 794.613 86.2578C794.454 86.4173 794.249 86.5882 793.998 86.7705C793.77 86.9528 793.485 87.2262 793.144 87.5908C792.802 87.9554 792.483 88.3428 792.187 88.7529C791.913 89.1631 791.605 89.5391 791.264 89.8809C790.922 90.2227 790.546 90.5075 790.136 90.7354C789.726 90.9632 789.236 91.0771 788.666 91.0771C787.937 91.0771 787.196 90.9746 786.444 90.7695C785.692 90.5645 784.997 90.2796 784.359 89.915C783.721 89.5277 783.197 89.0605 782.787 88.5137C782.4 87.9668 782.206 87.3516 782.206 86.668C782.206 85.8021 782.309 84.7425 782.514 83.4893C782.742 82.236 782.855 80.8916 782.855 79.4561C782.855 78.9092 782.89 78.4535 782.958 78.0889C783.026 77.7015 783.106 77.3483 783.197 77.0293C783.311 76.6875 783.425 76.3571 783.539 76.0381C783.653 75.6963 783.744 75.2975 783.812 74.8418C783.926 74.1582 784.006 73.4176 784.052 72.6201C784.12 71.8226 784.177 71.0023 784.223 70.1592C784.268 69.2933 784.302 68.416 784.325 67.5273C784.371 66.6387 784.416 65.7614 784.462 64.8955C784.485 64.4854 784.53 64.0866 784.599 63.6992C784.69 63.3118 784.77 62.9131 784.838 62.5029C784.929 62.0928 784.997 61.6712 785.043 61.2383C785.111 60.8053 785.146 60.3268 785.146 59.8027C785.146 59.3242 785.1 58.8799 785.009 58.4697C784.94 58.0596 784.861 57.638 784.77 57.2051C784.678 56.7721 784.587 56.3164 784.496 55.8379C784.428 55.3366 784.394 54.7669 784.394 54.1289C784.394 53.7188 784.451 53.2744 784.564 52.7959C784.701 52.2946 784.861 51.7819 785.043 51.2578C785.225 50.7109 785.419 50.1527 785.624 49.583C785.829 49.0133 786.023 48.4323 786.205 47.8398C786.296 47.5436 786.353 47.2474 786.376 46.9512C786.399 46.6549 786.41 46.3815 786.41 46.1309C786.41 45.8574 786.422 45.6296 786.444 45.4473C786.467 45.265 786.524 45.1283 786.615 45.0371C786.661 44.946 786.809 44.8434 787.06 44.7295C787.31 44.6156 787.572 44.5016 787.846 44.3877C788.142 44.251 788.415 44.1484 788.666 44.0801C788.939 43.9889 789.122 43.932 789.213 43.9092C789.532 43.9092 789.817 44.0117 790.067 44.2168C790.341 44.3991 790.705 44.5358 791.161 44.627C791.822 44.7637 792.471 44.8548 793.109 44.9004C793.77 44.946 794.374 45.0029 794.921 45.0713C795.491 45.1396 796.003 45.2422 796.459 45.3789C796.938 45.5156 797.325 45.7549 797.621 46.0967C797.94 46.4385 798.236 46.8828 798.51 47.4297C798.783 47.9538 799.045 48.512 799.296 49.1045C799.569 49.6969 799.831 50.3008 800.082 50.916C800.355 51.5312 800.629 52.0895 800.902 52.5908C801.153 53.0465 801.449 53.4681 801.791 53.8555C802.133 54.2201 802.395 54.596 802.577 54.9834C802.714 55.234 802.794 55.5303 802.816 55.8721C802.839 56.1911 802.93 56.4759 803.09 56.7266C803.158 56.8861 803.375 57.2848 803.739 57.9229C804.104 58.5609 804.503 59.2445 804.936 59.9736C805.391 60.68 805.801 61.318 806.166 61.8877C806.553 62.4574 806.804 62.7422 806.918 62.7422C807.191 62.7422 807.442 62.5485 807.67 62.1611C807.921 61.7738 808.16 61.2952 808.388 60.7256C808.616 60.1559 808.855 59.5521 809.105 58.9141C809.356 58.2533 809.63 57.6608 809.926 57.1367C810.29 56.5443 810.701 55.986 811.156 55.4619C811.612 54.915 811.999 54.3112 812.318 53.6504C812.523 53.2174 812.729 52.6592 812.934 51.9756C813.161 51.292 813.401 50.5742 813.651 49.8223C813.902 49.0475 814.175 48.2728 814.472 47.498C814.791 46.7233 815.144 46.0283 815.531 45.4131C815.919 44.7751 816.352 44.2624 816.83 43.875C817.309 43.4876 817.855 43.2939 818.471 43.2939C818.767 43.2939 819.018 43.3395 819.223 43.4307C819.428 43.499 819.633 43.6016 819.838 43.7383C820.066 43.875 820.316 44.0231 820.59 44.1826C820.863 44.3421 821.205 44.4902 821.615 44.627C822.003 44.7409 822.39 44.832 822.777 44.9004C823.188 44.9688 823.575 45.0371 823.939 45.1055C824.304 45.1738 824.634 45.265 824.931 45.3789C825.25 45.4701 825.523 45.6296 825.751 45.8574C825.979 46.1081 826.161 46.4271 826.298 46.8145C826.435 47.2018 826.537 47.6234 826.605 48.0791C826.697 48.5348 826.754 49.0247 826.776 49.5488C826.822 50.0729 826.856 50.597 826.879 51.1211C826.879 51.8958 826.856 52.6478 826.811 53.377C826.765 54.0833 826.742 54.7555 826.742 55.3936C826.742 55.9176 826.776 56.3734 826.845 56.7607C826.936 57.1481 827.027 57.5469 827.118 57.957C827.232 58.3444 827.335 58.7887 827.426 59.29C827.517 59.7913 827.562 60.4066 827.562 61.1357C827.562 61.8421 827.54 62.5827 827.494 63.3574C827.449 64.1094 827.426 64.8385 827.426 65.5449C827.426 66.4108 827.483 67.1058 827.597 67.6299C827.733 68.1312 827.893 68.5527 828.075 68.8945C828.257 69.2363 828.451 69.5553 828.656 69.8516C828.861 70.1478 829.044 70.5124 829.203 70.9453C829.271 71.1276 829.34 71.3896 829.408 71.7314C829.477 72.0732 829.545 72.4378 829.613 72.8252C829.682 73.1898 829.739 73.5544 829.784 73.9189C829.83 74.2835 829.864 74.5911 829.887 74.8418Z" fill="#FF9900"/>
</svg>
